{
  "Status": {
    "StatusReasonCode": "ERR-0000",
    "Text": "Success"
  },
  "Success": "true",
  "ReturnedNumberOfRecords": "1",
  "SAPStatus": {
    "ResponseDetails": {
      "Success": "Y",
      "Text": "1 option possible"
    },
    "Party": {
      "PartyIdentification": { "ID": "28c5381746e24e40b62a590dc190d251" },
      "PartyName": { "Name": "checkShipCondition" },
      "AgentParty": {
        "PartyIdentification": { "ID": "Requester_0" }
      },
      "ServiceProviderParty": { "ID": "S1034" }
    }
  }
}

