<svg xmlns="http://www.w3.org/2000/svg" xmlns:xlink="http://www.w3.org/1999/xlink" width="30" height="30" viewBox="0 0 30 30">
    <defs>
        <path id="a" d="M13.48 1c-2.7 0-5.3 1.2-7 3.4l.8.8c1.1-1.3 2.5-2.3 4.1-2.7-.8 1.1-1.4 2.9-1.7 5.1l-.1.4h6.8c.1.6.1 1.3.1 2 0 .5 0 1.3-.1 2h-2.2l1 1h1.1c-.1.3-.1.6-.2.8l.8.8c.1-.4.3-1 .4-1.6h3.6c-.5 1.3-1.4 2.4-2.4 3.2l.8.8c2-1.7 3.4-4.2 3.4-7-.2-5-4.2-9-9.2-9zm-2.8 6c.4-2.7 1.4-4.6 2.5-4.9h.6c1 .3 2 2.2 2.5 4.9h-5.6zm5-4.6c2.4.7 4.3 2.4 5.2 4.6h-3.6c-.3-2-.9-3.6-1.6-4.6zm1.7 9.6c.1-.6.1-1.2.1-2 0-.7 0-1.4-.1-2h3.8c.2.6.3 1.3.3 2s-.1 1.4-.3 2h-3.8zm-6.4 4.504c.163.115.3.206.412.276l.351-.35c.37-.371.37-.371.636-.63.588-.441 1.366-.441 1.854.046l3.1 3.1c.813.813.777 1.63-.1 2.508-.968.967-2.023 1.218-3.862.734-2.005-.445-4.896-2.285-7.345-4.734l.707-.708c2.326 2.326 5.062 4.067 6.873 4.47 1.525.402 2.212.238 2.92-.47.5-.5.508-.684.1-1.092l-3.1-3.1c-.113-.113-.335-.113-.493 0l-1.445 1.445-.316-.144c-.606-.275-1.68-1.035-3.146-2.501-1.467-1.467-2.226-2.541-2.502-3.147l-.143-.316.245-.245a14.456 14.456 0 0 0 .664-.715c.177-.206.3-.372.39-.531.158-.212.158-.434.046-.546L5.21 8.239c-.913-.913-.913-.913-1.452-1.455-.473-.394-.595-.394-1.126.07-.65.65-.8 1.348-.47 2.919.507 1.927 2.256 4.66 4.57 6.973l-.707.708c-2.43-2.43-4.273-5.31-4.836-7.451-.4-1.902-.177-2.944.76-3.88.93-.813 1.602-.813 2.483-.077l3.1 3.1c.487.488.487 1.266.093 1.778-.088.177-.25.392-.476.658l-.128.145c-.104.118-.214.237-.326.355.07.113.162.252.279.417.436.617 1.046 1.336 1.858 2.147.811.812 1.53 1.422 2.147 1.858z"/>
    </defs>
    <g fill="none" fill-rule="evenodd">
        <rect width="29" height="29" x=".5" y=".5" stroke="#9FABB2" rx="3"/>
        <g transform="translate(3 3)">
            <path d="M0 0h24v24H0z"/>
            <mask id="b" fill="#fff">
                <use xlink:href="#a"/>
            </mask>
            <use fill="#2D4552" fill-rule="nonzero" xlink:href="#a"/>
            <g fill="#2D4552" mask="url(#b)">
                <path d="M0 0h24v24H0z"/>
            </g>
        </g>
    </g>
</svg>
