<svg xmlns="http://www.w3.org/2000/svg" xmlns:xlink="http://www.w3.org/1999/xlink" width="12" height="16" viewBox="0 0 12 16">
    <defs>
        <path id="a" d="M5 16.286C5 17.229 5.75 18 6.667 18h6.666C14.25 18 15 17.229 15 16.286V6H5v10.286zM16 3h-3l-.857-1H7.857L7 3H4v2h12V3z"/>
    </defs>
    <use fill="#2D4552" fill-rule="evenodd" transform="translate(-4 -2)" xlink:href="#a"/>
</svg>
