<svg xmlns="http://www.w3.org/2000/svg" xmlns:xlink="http://www.w3.org/1999/xlink" width="14" height="18" viewBox="0 0 14 18">
    <defs>
        <path id="a" d="M10 2.714c1.289 0 2.333 1.152 2.333 2.572H7.667c0-1.42 1.044-2.572 2.333-2.572zm5.444 2.572H13.89c0-1.137-.41-2.227-1.14-3.03C12.022 1.451 11.032 1 10 1 7.852 1 6.111 2.919 6.111 5.286H4.556C3.692 5.286 3 6.049 3 7v10.286C3 18.232 3.696 19 4.556 19h10.888c.86 0 1.556-.768 1.556-1.714V7c0-.951-.7-1.714-1.556-1.714z"/>
    </defs>
    <g fill="none" fill-rule="evenodd" transform="translate(-3 -1)">
        <mask id="b" fill="#fff">
            <use xlink:href="#a"/>
        </mask>
        <use fill="#2D4552" fill-rule="nonzero" xlink:href="#a"/>
        <g fill="#2D4552" mask="url(#b)">
            <path d="M0 0h20v20H0z"/>
        </g>
    </g>
</svg>
