<svg xmlns="http://www.w3.org/2000/svg" xmlns:xlink="http://www.w3.org/1999/xlink" width="16" height="16" viewBox="0 0 16 16">
    <defs>
        <path id="a" d="M2.008 6l2.014-3.244A1.6 1.6 0 0 1 5.382 2h9.16a1.6 1.6 0 0 1 1.345.734L17.991 6H18v10.588c0 .78-.632 1.412-1.412 1.412H3.412C2.632 18 2 17.368 2 16.588V6h.008zm1.717-.08H16.18l-1.342-2.333H5.066L3.725 5.92zM2.008 6L2 6.013h16L17.991 6H2.008zm5.495 2.111a1 1 0 1 0 0 2h4.994a1 1 0 0 0 0-2H7.503z"/>
    </defs>
    <g fill="none" fill-rule="evenodd" transform="translate(-2 -2)">
        <mask id="b" fill="#fff">
            <use xlink:href="#a"/>
        </mask>
        <use fill="#2D4552" xlink:href="#a"/>
        <g fill="#2D4552" mask="url(#b)">
            <path d="M0 0h20v20H0z"/>
        </g>
    </g>
</svg>
