<svg xmlns="http://www.w3.org/2000/svg" xmlns:xlink="http://www.w3.org/1999/xlink" width="34" height="34" viewBox="0 0 34 34">
    <defs>
        <path id="a" d="M11 0c6.05 0 11 4.95 11 11s-4.95 11-11 11S0 17.05 0 11 4.95 0 11 0zm0 2c-4.95 0-9 4.05-9 9s4.05 9 9 9 9-4.05 9-9-4.05-9-9-9z"/>
        <path id="c" d="M7.071 14.67c0 .347.29.63.643.63h2.572a.638.638 0 0 0 .643-.63v-.63H7.07v.63zM9 2.7c-2.481 0-4.5 1.978-4.5 4.41 0 1.5.765 2.816 1.929 3.616v1.424c0 .346.289.63.642.63h3.858a.638.638 0 0 0 .642-.63v-1.424c1.164-.8 1.929-2.117 1.929-3.616 0-2.432-2.019-4.41-4.5-4.41zm1.539 6.577l-.459.316V10.8H7.92V9.592l-.459-.315A2.603 2.603 0 0 1 6.3 7.125C6.3 5.676 7.51 4.5 9 4.5c1.49 0 2.7 1.176 2.7 2.625 0 .856-.432 1.659-1.161 2.152z"/>
    </defs>
    <g fill="none" fill-rule="evenodd">
        <path fill="#FFF" stroke="#58BADC" stroke-opacity=".2" stroke-width="6" d="M3 17C3 9.293 9.293 3 17 3s14 6.293 14 14-6.293 14-14 14S3 24.707 3 17z"/>
        <g transform="translate(6 6)">
            <mask id="b" fill="#fff">
                <use xlink:href="#a"/>
            </mask>
            <use fill="#FFF" xlink:href="#a"/>
            <g fill="#58BADC" mask="url(#b)">
                <path d="M-1-1h24v24H-1z"/>
            </g>
        </g>
        <g transform="translate(8 8)">
            <path d="M0 0h18v18H0z"/>
            <mask id="d" fill="#fff">
                <use xlink:href="#c"/>
            </mask>
            <use fill="#FFF" fill-rule="nonzero" xlink:href="#c"/>
            <g fill="#58BADC" mask="url(#d)">
                <path d="M0 0h18v18H0z"/>
            </g>
        </g>
    </g>
</svg>
