<svg xmlns="http://www.w3.org/2000/svg" xmlns:xlink="http://www.w3.org/1999/xlink" width="17" height="23" viewBox="0 0 17 23">
    <defs>
        <path id="a" d="M0 0h26v23H0z"/>
        <filter id="b" width="103.8%" height="104.3%" x="-1.9%" y="-2.2%" filterUnits="objectBoundingBox">
            <feOffset dx="1" in="SourceAlpha" result="shadowOffsetInner1"/>
            <feComposite in="shadowOffsetInner1" in2="SourceAlpha" k2="-1" k3="1" operator="arithmetic" result="shadowInnerInner1"/>
            <feColorMatrix in="shadowInnerInner1" values="0 0 0 0 0 0 0 0 0 0 0 0 0 0 0 0 0 0 0.2 0"/>
        </filter>
        <path id="c" d="M1 3h8L5 7z"/>
    </defs>
    <g fill="none" fill-rule="evenodd">
        <use fill="#D8D8D8" fill-opacity="0" xlink:href="#a"/>
        <g>
            <g transform="translate(8 7)">
                <path d="M0 0h10v10H0z"/>
                <mask id="d" fill="#fff">
                    <use xlink:href="#c"/>
                </mask>
                <use fill="#2D4552" xlink:href="#c"/>
                <g fill="#2D4552" mask="url(#d)">
                    <path d="M0 0h10v10H0z"/>
                </g>
            </g>
        </g>
    </g>
</svg>
