{
  "ROOT": {
    "Event": {
      "Type": "string",
      "ID": "string",
      "CallerID": "string",
      "CorrelationID": "string",
      "SourceID": "string",
      "OriginalAppl": "string",
      "OriginalPubID": "string",
      "MessageCreationTimestamp": "2008-09-29T04:49:45",
      "FrontendUserId": "string",
      "DealerCode": "string",
      "SalesChannel": "string",
      "DealerOrganisation": "string",
      "ShopID": "string"
    },
    "DATA": {
      "NonStandardRates": [
        {
          "AddressId": "8241274",
          "ContractCode": "ZIK",
          "ProductCode": "GRU",
          "NonStandardRate": "3.98",
          "NonStandardInstallRate": "24.68"
        },
        {
          "AddressId": "8241274",
          "ContractCode": "ZIK",
          "ProductCode": "ZUS",
          "NonStandardRate": "0.71",
          "NonStandardInstallRate": "56.99"
        },
        {
          "AddressId": "8241274",
          "ContractCode": "ZIK",
          "ProductCode": "VOL",
          "NonStandardRate": "13.89",
          "NonStandardInstallRate": "37.98"
        },
        {
          "AddressId": "8241274",
          "ContractCode": "ZIK",
          "ProductCode": "SAR",
          "NonStandardRate": "0.00",
          "NonStandardInstallRate": "0.00"
        }
      ]
    },
    "Status": {
      "ErrorCode": "OGWERR-0000",
      "ErrorDescription": "SUCCESS"
    }
  }
}
