{
  "ReferenceID": "5a439aed3c7e3",
  "Status": {
    "StatusReasonCode": "ERR-0000",
    "StatusReason": "SUCCESS",
    "Text": "false"
  },
  "Success": "true",
  "quotation_information": {
    "discount_total_o_c": "0.0",
    "discount_total_r_c": "0.0",
    "original_total_o_c": "0.0",
    "original_total_r_c": "0.0",
    "override_total_o_c": "0.0",
    "previous_tax_total_r_c": "0.0",
    "previous_total_r_c": "0.0",
    "prorated_discount_total_r_c": "0.0",
    "prorated_tax_total_r_c": "0.0",
    "prorated_total_r_c": "0.0",
    "tax_total_o_c": "0.0",
    "tax_total_r_c": "0.0",
    "total_o_c": "0.0",
    "total_r_c": "0.0"
  }
}
