{
  "status": {
    "response_code": "-8",
    "code": "100098",
    "description": "The order does not exist"
  },
  "result": {
    "Success": true,
    "Code": 1,
    "Status": "teststatus",
    "Description": "testdescription"
  }
}
