<?xml version="1.0" encoding="UTF-8"?>
<svg width="18px" height="18px" viewBox="0 0 18 18" version="1.1" xmlns="http://www.w3.org/2000/svg" xmlns:xlink="http://www.w3.org/1999/xlink">
    <!-- Generator: Sketch 52.1 (67048) - http://www.bohemiancoding.com/sketch -->
    <title>warning-critical</title>
    <desc>Created with Sketch.</desc>
    <g id="Icons" stroke="none" stroke-width="1" fill="none" fill-rule="evenodd">
        <g id="warning-critical" transform="translate(-3.000000, -3.000000)">
            <rect id="BG" fill-opacity="0" fill="#D8D8D8" x="0" y="0" width="24" height="24"></rect>
            <path d="M12.8602112,3.43212081 C12.2840501,2.85595973 11.3412411,2.85595973 10.76508,3.43212081 L3.43212081,10.76508 C2.85595973,11.3412411 2.85595973,12.2840501 3.43212081,12.8602112 L10.76508,20.1931704 C11.3412411,20.7693315 12.2840501,20.7693315 12.8602112,20.1931704 L20.1931704,12.8602112 C20.7693315,12.2840501 20.7693315,11.3412411 20.1931704,10.76508 L12.8602112,3.43212081 Z M10.9793123,15.9793123 L10.9793123,14.3126456 L12.645979,14.3126456 L12.645979,15.9793123 L10.9793123,15.9793123 Z M12.645979,12.645979 L10.9793123,12.645979 L10.9793123,7.64597896 L12.645979,7.64597896 L12.645979,12.645979 L12.645979,12.645979 Z" id="Shape" fill="#E2574C"></path>
        </g>
    </g>
</svg>