{
    "execute_request_with_login_result":{
        "string":[
            "1.0",
            "<GetKVKDetailsResponse version=\"1.0\" timestamp=\"20140522093607\">\n  <KVKNumber>34233513<\/KVKNumber>\n  <ChamberNumber>34<\/ChamberNumber>\n  <FileNumber>233513<\/FileNumber>\n  <SubFileNumber>000<\/SubFileNumber>\n  <CompanyName>ORANJEKWARTIER PARKEERGARAGE B.V.<\/CompanyName>\n  <Date>20090520<\/Date>\n  <DB_Number>386023340<\/DB_Number>\n  <ZipCode>1081AB<\/ZipCode>\n  <HouseNumber>106<\/HouseNumber>\n  <Phone>0205407400<\/Phone>\n<\/GetKVKDetailsResponse>",
            ""
        ]
    }
}