{
    "execute_request_with_login_result": {
        "string": [
            "1.0", 
            "<GetKVKDetailsResponse version=\"1.0\" timestamp=\"20140619134508\">\n  <ListOfKVKDetails count=\"190\">\n    <KVKDetail>\n      <KVKNumber>00001768<\/KVKNumber>\n      <CompanyName>THIJS BRAND TWEEWIELERS B.V.<\/CompanyName>\n      <ChamberNumber>00<\/ChamberNumber>\n      <FileNumber>001768<\/FileNumber>\n      <SubFileNumber>0000<\/SubFileNumber>\n      <Date>20041222<\/Date>\n      <DB_Number>386656602<\/DB_Number>\n      <ZipCode>2266 BA<\/ZipCode>\n      <HouseNumber>14<\/HouseNumber>\n      <Phone>0703279202<\/Phone>\n    <\/KVKDetail>\n    <KVKDetail>\n      <KVKNumber>00001768<\/KVKNumber>\n      <CompanyName>BEVELA B.V.<\/CompanyName>\n      <ChamberNumber>00<\/ChamberNumber>\n      <FileNumber>001768<\/FileNumber>\n      <SubFileNumber>0000<\/SubFileNumber>\n      <Date>19970101<\/Date>\n      <DB_Number>386690549<\/DB_Number>\n      <ZipCode>3447 GK<\/ZipCode>\n      <HouseNumber>43<\/HouseNumber>\n      <Phone>0348412733<\/Phone>\n    <\/KVKDetail>\n    <KVKDetail>\n      <KVKNumber>00001768<\/KVKNumber>\n      <CompanyName>BEVELA B.V.<\/CompanyName>\n      <ChamberNumber>00<\/ChamberNumber>\n      <FileNumber>001768<\/FileNumber>\n      <SubFileNumber>0000<\/SubFileNumber>\n      <Date>19970101<\/Date>\n      <DB_Number>386690960<\/DB_Number>\n      <ZipCode>1212 AD<\/ZipCode>\n      <HouseNumber>249<\/HouseNumber>\n      <Phone>0356859891<\/Phone>\n    <\/KVKDetail>\n    <KVKDetail>\n      <KVKNumber>00001768<\/KVKNumber>\n      <CompanyName>FLETCHER HOTEL EXPLOITATIES B.V.<\/CompanyName>\n      <ChamberNumber>00<\/ChamberNumber>\n      <FileNumber>001768<\/FileNumber>\n      <SubFileNumber>0000<\/SubFileNumber>\n      <Date>19380501<\/Date>\n      <DB_Number>387458602<\/DB_Number>\n      <ZipCode>6571 BA<\/ZipCode>\n      <HouseNumber>17<\/HouseNumber>\n      <Phone>0246843514<\/Phone>\n    <\/KVKDetail>\n    <KVKDetail>\n      <KVKNumber>00001768<\/KVKNumber>\n      <CompanyName>FLETCHER HOTEL EXPLOITATIES B.V.<\/CompanyName>\n      <ChamberNumber>00<\/ChamberNumber>\n      <FileNumber>001768<\/FileNumber>\n      <SubFileNumber>0000<\/SubFileNumber>\n      <Date>20031201<\/Date>\n      <DB_Number>387458610<\/DB_Number>\n      <ZipCode>8445 SR<\/ZipCode>\n      <HouseNumber>1<\/HouseNumber>\n      <Phone>0513630200<\/Phone>\n    <\/KVKDetail>\n    <KVKDetail>\n      <KVKNumber>00001768<\/KVKNumber>\n      <CompanyName>PLUIM &amp; DE HAAS B.V.<\/CompanyName>\n      <ChamberNumber>00<\/ChamberNumber>\n      <FileNumber>001768<\/FileNumber>\n      <SubFileNumber>0000<\/SubFileNumber>\n      <Date>19970501<\/Date>\n      <DB_Number>402663996<\/DB_Number>\n      <ZipCode>6836 NC<\/ZipCode>\n      <HouseNumber>4<\/HouseNumber>\n      <Phone>0263270667<\/Phone>\n    <\/KVKDetail>\n    <KVKDetail>\n      <KVKNumber>00001768<\/KVKNumber>\n      <CompanyName>FLETCHER HOTEL EXPLOITATIES B.V.<\/CompanyName>\n      <ChamberNumber>00<\/ChamberNumber>\n      <FileNumber>001768<\/FileNumber>\n      <SubFileNumber>0000<\/SubFileNumber>\n      <Date>19980813<\/Date>\n      <DB_Number>403975522<\/DB_Number>\n      <ZipCode>4361 SM<\/ZipCode>\n      <HouseNumber>2<\/HouseNumber>\n      <Phone>0118561810<\/Phone>\n    <\/KVKDetail>\n    <KVKDetail>\n      <KVKNumber>00001768<\/KVKNumber>\n      <CompanyName>FLETCHER HOTEL EXPLOITATIES B.V.<\/CompanyName>\n      <ChamberNumber>00<\/ChamberNumber>\n      <FileNumber>001768<\/FileNumber>\n      <SubFileNumber>0000<\/SubFileNumber>\n      <Date>19560701<\/Date>\n      <DB_Number>403975530<\/DB_Number>\n      <ZipCode>6301 HL<\/ZipCode>\n      <HouseNumber>134<\/HouseNumber>\n      <Phone>0436012962<\/Phone>\n    <\/KVKDetail>\n    <KVKDetail>\n      <KVKNumber>00001768<\/KVKNumber>\n      <CompanyName>THEO HENKELMAN SCHOENEN B.V.<\/CompanyName>\n      <ChamberNumber>00<\/ChamberNumber>\n      <FileNumber>001768<\/FileNumber>\n      <SubFileNumber>0000<\/SubFileNumber>\n      <Date>19990315<\/Date>\n      <DB_Number>404745288<\/DB_Number>\n      <ZipCode>5144 NC<\/ZipCode>\n      <HouseNumber>16<\/HouseNumber>\n      <Phone>0416563339<\/Phone>\n    <\/KVKDetail>\n    <KVKDetail>\n      <KVKNumber>00001768<\/KVKNumber>\n      <CompanyName>ATLAS SERVICES GROUP DREDGING B.V.<\/CompanyName>\n      <ChamberNumber>00<\/ChamberNumber>\n      <FileNumber>001768<\/FileNumber>\n      <SubFileNumber>0000<\/SubFileNumber>\n      <Date>20000201<\/Date>\n      <DB_Number>405358610<\/DB_Number>\n      <ZipCode>2909 LG<\/ZipCode>\n      <HouseNumber>41<\/HouseNumber>\n      <Phone>0102669455<\/Phone>\n    <\/KVKDetail>\n    <KVKDetail>\n      <KVKNumber>00001768<\/KVKNumber>\n      <CompanyName>DOEDIJNS B.V.<\/CompanyName>\n      <ChamberNumber>00<\/ChamberNumber>\n      <FileNumber>001768<\/FileNumber>\n      <SubFileNumber>0000<\/SubFileNumber>\n      <Date>19630913<\/Date>\n      <DB_Number>405925137<\/DB_Number>\n      <ZipCode>5431 LG<\/ZipCode>\n      <HouseNumber>23<\/HouseNumber>\n      <Phone>0485337100<\/Phone>\n    <\/KVKDetail>\n    <KVKDetail>\n      <KVKNumber>00001768<\/KVKNumber>\n      <CompanyName>BLOKKER B.V.<\/CompanyName>\n      <ChamberNumber>00<\/ChamberNumber>\n      <FileNumber>001768<\/FileNumber>\n      <SubFileNumber>0000<\/SubFileNumber>\n      <Date>19820225<\/Date>\n      <DB_Number>409063138<\/DB_Number>\n      <ZipCode>9742 AN<\/ZipCode>\n      <HouseNumber>238<\/HouseNumber>\n      <Phone>0505791393<\/Phone>\n    <\/KVKDetail>\n    <KVKDetail>\n      <KVKNumber>00001768<\/KVKNumber>\n      <CompanyName>BLOKKER B.V.<\/CompanyName>\n      <ChamberNumber>00<\/ChamberNumber>\n      <FileNumber>001768<\/FileNumber>\n      <SubFileNumber>0000<\/SubFileNumber>\n      <Date>19820303<\/Date>\n      <DB_Number>409063146<\/DB_Number>\n      <ZipCode>9711 LC<\/ZipCode>\n      <HouseNumber>59<\/HouseNumber>\n      <Phone>0503120596<\/Phone>\n    <\/KVKDetail>\n    <KVKDetail>\n      <KVKNumber>00001768<\/KVKNumber>\n      <CompanyName>BLOKKER B.V.<\/CompanyName>\n      <ChamberNumber>00<\/ChamberNumber>\n      <FileNumber>001768<\/FileNumber>\n      <SubFileNumber>0000<\/SubFileNumber>\n      <Date>19820801<\/Date>\n      <DB_Number>409063153<\/DB_Number>\n      <ZipCode>9752 BE<\/ZipCode>\n      <HouseNumber>179<\/HouseNumber>\n      <Phone>0505350264<\/Phone>\n    <\/KVKDetail>\n    <KVKDetail>\n      <KVKNumber>00001768<\/KVKNumber>\n      <CompanyName>BLOKKER B.V.<\/CompanyName>\n      <ChamberNumber>00<\/ChamberNumber>\n      <FileNumber>001768<\/FileNumber>\n      <SubFileNumber>0000<\/SubFileNumber>\n      <Date>19820806<\/Date>\n      <DB_Number>409063161<\/DB_Number>\n      <ZipCode>7607 CT<\/ZipCode>\n      <HouseNumber>86<\/HouseNumber>\n      <Phone>0546456229<\/Phone>\n    <\/KVKDetail>\n    <KVKDetail>\n      <KVKNumber>00001768<\/KVKNumber>\n      <CompanyName>BLOKKER B.V.<\/CompanyName>\n      <ChamberNumber>00<\/ChamberNumber>\n      <FileNumber>001768<\/FileNumber>\n      <SubFileNumber>0000<\/SubFileNumber>\n      <Date>19791114<\/Date>\n      <DB_Number>409063187<\/DB_Number>\n      <ZipCode>6831 ES<\/ZipCode>\n      <HouseNumber>126<\/HouseNumber>\n      <Phone>0263272709<\/Phone>\n    <\/KVKDetail>\n    <KVKDetail>\n      <KVKNumber>00001768<\/KVKNumber>\n      <CompanyName>BLOKKER B.V.<\/CompanyName>\n      <ChamberNumber>00<\/ChamberNumber>\n      <FileNumber>001768<\/FileNumber>\n      <SubFileNumber>0000<\/SubFileNumber>\n      <Date>19801215<\/Date>\n      <DB_Number>409063195<\/DB_Number>\n      <ZipCode>6701 BR<\/ZipCode>\n      <HouseNumber>79<\/HouseNumber>\n      <Phone>0317421397<\/Phone>\n    <\/KVKDetail>\n    <KVKDetail>\n      <KVKNumber>00001768<\/KVKNumber>\n      <CompanyName>BLOKKER B.V.<\/CompanyName>\n      <ChamberNumber>00<\/ChamberNumber>\n      <FileNumber>001768<\/FileNumber>\n      <SubFileNumber>0000<\/SubFileNumber>\n      <Date>19820415<\/Date>\n      <DB_Number>409063203<\/DB_Number>\n      <ZipCode>6826 MJ<\/ZipCode>\n      <HouseNumber>157<\/HouseNumber>\n      <Phone>0263636298<\/Phone>\n    <\/KVKDetail>\n    <KVKDetail>\n      <KVKNumber>00001768<\/KVKNumber>\n      <CompanyName>BLOKKER B.V.<\/CompanyName>\n      <ChamberNumber>00<\/ChamberNumber>\n      <FileNumber>001768<\/FileNumber>\n      <SubFileNumber>0000<\/SubFileNumber>\n      <Date>19820402<\/Date>\n      <DB_Number>409063211<\/DB_Number>\n      <ZipCode>4101 BW<\/ZipCode>\n      <HouseNumber>39<\/HouseNumber>\n      <Phone>0345533468<\/Phone>\n    <\/KVKDetail>\n    <KVKDetail>\n      <KVKNumber>00001768<\/KVKNumber>\n      <CompanyName>BLOKKER B.V.<\/CompanyName>\n      <ChamberNumber>00<\/ChamberNumber>\n      <FileNumber>001768<\/FileNumber>\n      <SubFileNumber>0000<\/SubFileNumber>\n      <Date>19870327<\/Date>\n      <DB_Number>409063237<\/DB_Number>\n      <ZipCode>6041 HD<\/ZipCode>\n      <HouseNumber>8<\/HouseNumber>\n      <Phone>0475420038<\/Phone>\n    <\/KVKDetail>\n    <KVKDetail>\n      <KVKNumber>00001768<\/KVKNumber>\n      <CompanyName>BLOKKER B.V.<\/CompanyName>\n      <ChamberNumber>00<\/ChamberNumber>\n      <FileNumber>001768<\/FileNumber>\n      <SubFileNumber>0000<\/SubFileNumber>\n      <Date>19751114<\/Date>\n      <DB_Number>409063245<\/DB_Number>\n      <ZipCode>5625 AC<\/ZipCode>\n      <HouseNumber>38<\/HouseNumber>\n      <Phone>0402926231<\/Phone>\n    <\/KVKDetail>\n    <KVKDetail>\n      <KVKNumber>00001768<\/KVKNumber>\n      <CompanyName>BLOKKER B.V.<\/CompanyName>\n      <ChamberNumber>00<\/ChamberNumber>\n      <FileNumber>001768<\/FileNumber>\n      <SubFileNumber>0000<\/SubFileNumber>\n      <Date>19761104<\/Date>\n      <DB_Number>409063252<\/DB_Number>\n      <ZipCode>5654 AZ<\/ZipCode>\n      <HouseNumber>7<\/HouseNumber>\n      <Phone>0402910955<\/Phone>\n    <\/KVKDetail>\n    <KVKDetail>\n      <KVKNumber>00001768<\/KVKNumber>\n      <CompanyName>BLOKKER B.V.<\/CompanyName>\n      <ChamberNumber>00<\/ChamberNumber>\n      <FileNumber>001768<\/FileNumber>\n      <SubFileNumber>0000<\/SubFileNumber>\n      <Date>19770505<\/Date>\n      <DB_Number>409063260<\/DB_Number>\n      <ZipCode>5554 HK<\/ZipCode>\n      <HouseNumber>12<\/HouseNumber>\n      <Phone>0402513964<\/Phone>\n    <\/KVKDetail>\n    <KVKDetail>\n      <KVKNumber>00001768<\/KVKNumber>\n      <CompanyName>BLOKKER B.V.<\/CompanyName>\n      <ChamberNumber>00<\/ChamberNumber>\n      <FileNumber>001768<\/FileNumber>\n      <SubFileNumber>0000<\/SubFileNumber>\n      <Date>19780531<\/Date>\n      <DB_Number>409063278<\/DB_Number>\n      <ZipCode>5653 LP<\/ZipCode>\n      <HouseNumber>68<\/HouseNumber>\n      <Phone>0402910953<\/Phone>\n    <\/KVKDetail>\n    <KVKDetail>\n      <KVKNumber>00001768<\/KVKNumber>\n      <CompanyName>BLOKKER B.V.<\/CompanyName>\n      <ChamberNumber>00<\/ChamberNumber>\n      <FileNumber>001768<\/FileNumber>\n      <SubFileNumber>0000<\/SubFileNumber>\n      <Date>19780628<\/Date>\n      <DB_Number>409063286<\/DB_Number>\n      <ZipCode>5701 RC<\/ZipCode>\n      <HouseNumber>16<\/HouseNumber>\n      <Phone>0492475200<\/Phone>\n    <\/KVKDetail>\n    <KVKDetail>\n      <KVKNumber>00001768<\/KVKNumber>\n      <CompanyName>BLOKKER B.V.<\/CompanyName>\n      <ChamberNumber>00<\/ChamberNumber>\n      <FileNumber>001768<\/FileNumber>\n      <SubFileNumber>0000<\/SubFileNumber>\n      <Date>19780928<\/Date>\n      <DB_Number>409063294<\/DB_Number>\n      <ZipCode>5501 EB<\/ZipCode>\n      <HouseNumber>46<\/HouseNumber>\n      <Phone>0402539163<\/Phone>\n    <\/KVKDetail>\n    <KVKDetail>\n      <KVKNumber>00001768<\/KVKNumber>\n      <CompanyName>BLOKKER B.V.<\/CompanyName>\n      <ChamberNumber>00<\/ChamberNumber>\n      <FileNumber>001768<\/FileNumber>\n      <SubFileNumber>0000<\/SubFileNumber>\n      <Date>19801001<\/Date>\n      <DB_Number>409063302<\/DB_Number>\n      <ZipCode>5611 AN<\/ZipCode>\n      <HouseNumber>13<\/HouseNumber>\n      <Phone>0402961339<\/Phone>\n    <\/KVKDetail>\n    <KVKDetail>\n      <KVKNumber>00001768<\/KVKNumber>\n      <CompanyName>BLOKKER B.V.<\/CompanyName>\n      <ChamberNumber>00<\/ChamberNumber>\n      <FileNumber>001768<\/FileNumber>\n      <SubFileNumber>0000<\/SubFileNumber>\n      <Date>19770623<\/Date>\n      <DB_Number>409063328<\/DB_Number>\n      <ZipCode>2903 HA<\/ZipCode>\n      <HouseNumber>23<\/HouseNumber>\n      <Phone>0102840137<\/Phone>\n    <\/KVKDetail>\n    <KVKDetail>\n      <KVKNumber>00001768<\/KVKNumber>\n      <CompanyName>BLOKKER B.V.<\/CompanyName>\n      <ChamberNumber>00<\/ChamberNumber>\n      <FileNumber>001768<\/FileNumber>\n      <SubFileNumber>0000<\/SubFileNumber>\n      <Date>19790413<\/Date>\n      <DB_Number>409063336<\/DB_Number>\n      <ZipCode>3011 PV<\/ZipCode>\n      <HouseNumber>196<\/HouseNumber>\n      <Phone>0102807340<\/Phone>\n    <\/KVKDetail>\n    <KVKDetail>\n      <KVKNumber>00001768<\/KVKNumber>\n      <CompanyName>BLOKKER B.V.<\/CompanyName>\n      <ChamberNumber>00<\/ChamberNumber>\n      <FileNumber>001768<\/FileNumber>\n      <SubFileNumber>0000<\/SubFileNumber>\n      <Date>19790907<\/Date>\n      <DB_Number>409063344<\/DB_Number>\n      <ZipCode>3083 BK<\/ZipCode>\n      <HouseNumber>843<\/HouseNumber>\n      <Phone>0102937836<\/Phone>\n    <\/KVKDetail>\n    <KVKDetail>\n      <KVKNumber>00001768<\/KVKNumber>\n      <CompanyName>BLOKKER B.V.<\/CompanyName>\n      <ChamberNumber>00<\/ChamberNumber>\n      <FileNumber>001768<\/FileNumber>\n      <SubFileNumber>0000<\/SubFileNumber>\n      <Date>19811015<\/Date>\n      <DB_Number>409063351<\/DB_Number>\n      <ZipCode>3078 AM<\/ZipCode>\n      <HouseNumber>32<\/HouseNumber>\n      <Phone>0102927325<\/Phone>\n    <\/KVKDetail>\n    <KVKDetail>\n      <KVKNumber>00001768<\/KVKNumber>\n      <CompanyName>BLOKKER B.V.<\/CompanyName>\n      <ChamberNumber>00<\/ChamberNumber>\n      <FileNumber>001768<\/FileNumber>\n      <SubFileNumber>0000<\/SubFileNumber>\n      <Date>19751114<\/Date>\n      <DB_Number>409063369<\/DB_Number>\n      <ZipCode>2545 GV<\/ZipCode>\n      <HouseNumber>922<\/HouseNumber>\n      <Phone>0703231682<\/Phone>\n    <\/KVKDetail>\n    <KVKDetail>\n      <KVKNumber>00001768<\/KVKNumber>\n      <CompanyName>BLOKKER B.V.<\/CompanyName>\n      <ChamberNumber>00<\/ChamberNumber>\n      <FileNumber>001768<\/FileNumber>\n      <SubFileNumber>0000<\/SubFileNumber>\n      <Date>19751114<\/Date>\n      <DB_Number>409063542<\/DB_Number>\n      <ZipCode>1072 GL<\/ZipCode>\n      <HouseNumber>302<\/HouseNumber>\n      <Phone>0203113871<\/Phone>\n    <\/KVKDetail>\n    <KVKDetail>\n      <KVKNumber>00001768<\/KVKNumber>\n      <CompanyName>BLOKKER B.V.<\/CompanyName>\n      <ChamberNumber>00<\/ChamberNumber>\n      <FileNumber>001768<\/FileNumber>\n      <SubFileNumber>0000<\/SubFileNumber>\n      <Date>19751114<\/Date>\n      <DB_Number>409063559<\/DB_Number>\n      <ZipCode>1098 AA<\/ZipCode>\n      <HouseNumber>9<\/HouseNumber>\n      <Phone>0206650826<\/Phone>\n    <\/KVKDetail>\n    <KVKDetail>\n      <KVKNumber>00001768<\/KVKNumber>\n      <CompanyName>BLOKKER B.V.<\/CompanyName>\n      <ChamberNumber>00<\/ChamberNumber>\n      <FileNumber>001768<\/FileNumber>\n      <SubFileNumber>0000<\/SubFileNumber>\n      <Date>19751114<\/Date>\n      <DB_Number>409063567<\/DB_Number>\n      <ZipCode>1072 LN<\/ZipCode>\n      <HouseNumber>98<\/HouseNumber>\n      <Phone>0206620492<\/Phone>\n    <\/KVKDetail>\n    <KVKDetail>\n      <KVKNumber>00001768<\/KVKNumber>\n      <CompanyName>BLOKKER B.V.<\/CompanyName>\n      <ChamberNumber>00<\/ChamberNumber>\n      <FileNumber>001768<\/FileNumber>\n      <SubFileNumber>0000<\/SubFileNumber>\n      <Date>19751114<\/Date>\n      <DB_Number>409063575<\/DB_Number>\n      <ZipCode>1053 GA<\/ZipCode>\n      <HouseNumber>262<\/HouseNumber>\n      <Phone>0206184407<\/Phone>\n    <\/KVKDetail>\n    <KVKDetail>\n      <KVKNumber>00001768<\/KVKNumber>\n      <CompanyName>BLOKKER B.V.<\/CompanyName>\n      <ChamberNumber>00<\/ChamberNumber>\n      <FileNumber>001768<\/FileNumber>\n      <SubFileNumber>0000<\/SubFileNumber>\n      <Date>19751114<\/Date>\n      <DB_Number>409063583<\/DB_Number>\n      <ZipCode>1075 SG<\/ZipCode>\n      <HouseNumber>2<\/HouseNumber>\n      <Phone>0205683568<\/Phone>\n    <\/KVKDetail>\n    <KVKDetail>\n      <KVKNumber>00001768<\/KVKNumber>\n      <CompanyName>BLOKKER B.V.<\/CompanyName>\n      <ChamberNumber>00<\/ChamberNumber>\n      <FileNumber>001768<\/FileNumber>\n      <SubFileNumber>0000<\/SubFileNumber>\n      <Date>19751114<\/Date>\n      <DB_Number>409063591<\/DB_Number>\n      <ZipCode>1063 MG<\/ZipCode>\n      <HouseNumber>40<\/HouseNumber>\n      <Phone>0206131284<\/Phone>\n    <\/KVKDetail>\n    <KVKDetail>\n      <KVKNumber>00001768<\/KVKNumber>\n      <CompanyName>BLOKKER B.V.<\/CompanyName>\n      <ChamberNumber>00<\/ChamberNumber>\n      <FileNumber>001768<\/FileNumber>\n      <SubFileNumber>0000<\/SubFileNumber>\n      <Date>19751114<\/Date>\n      <DB_Number>409063609<\/DB_Number>\n      <ZipCode>1056 CL<\/ZipCode>\n      <HouseNumber>86<\/HouseNumber>\n      <Phone>0206166349<\/Phone>\n    <\/KVKDetail>\n    <KVKDetail>\n      <KVKNumber>00001768<\/KVKNumber>\n      <CompanyName>BLOKKER B.V.<\/CompanyName>\n      <ChamberNumber>00<\/ChamberNumber>\n      <FileNumber>001768<\/FileNumber>\n      <SubFileNumber>0000<\/SubFileNumber>\n      <Date>19751114<\/Date>\n      <DB_Number>409063617<\/DB_Number>\n      <ZipCode>1094 HH<\/ZipCode>\n      <HouseNumber>24<\/HouseNumber>\n      <Phone>0206930844<\/Phone>\n    <\/KVKDetail>\n    <KVKDetail>\n      <KVKNumber>00001768<\/KVKNumber>\n      <CompanyName>BLOKKER B.V.<\/CompanyName>\n      <ChamberNumber>00<\/ChamberNumber>\n      <FileNumber>001768<\/FileNumber>\n      <SubFileNumber>0000<\/SubFileNumber>\n      <Date>19751114<\/Date>\n      <DB_Number>409063625<\/DB_Number>\n      <ZipCode>1065 JA<\/ZipCode>\n      <HouseNumber>189<\/HouseNumber>\n      <Phone>0204081239<\/Phone>\n    <\/KVKDetail>\n    <KVKDetail>\n      <KVKNumber>00001768<\/KVKNumber>\n      <CompanyName>BLOKKER B.V.<\/CompanyName>\n      <ChamberNumber>00<\/ChamberNumber>\n      <FileNumber>001768<\/FileNumber>\n      <SubFileNumber>0000<\/SubFileNumber>\n      <Date>19751114<\/Date>\n      <DB_Number>409063633<\/DB_Number>\n      <ZipCode>1068 EN<\/ZipCode>\n      <HouseNumber>130<\/HouseNumber>\n      <Phone>0204100487<\/Phone>\n    <\/KVKDetail>\n    <KVKDetail>\n      <KVKNumber>00001768<\/KVKNumber>\n      <CompanyName>BLOKKER B.V.<\/CompanyName>\n      <ChamberNumber>00<\/ChamberNumber>\n      <FileNumber>001768<\/FileNumber>\n      <SubFileNumber>0000<\/SubFileNumber>\n      <Date>19751114<\/Date>\n      <DB_Number>409063641<\/DB_Number>\n      <ZipCode>1181 ZJ<\/ZipCode>\n      <HouseNumber>85<\/HouseNumber>\n      <Phone>0206419596<\/Phone>\n    <\/KVKDetail>\n    <KVKDetail>\n      <KVKNumber>00001768<\/KVKNumber>\n      <CompanyName>BLOKKER B.V.<\/CompanyName>\n      <ChamberNumber>00<\/ChamberNumber>\n      <FileNumber>001768<\/FileNumber>\n      <SubFileNumber>0000<\/SubFileNumber>\n      <Date>19751114<\/Date>\n      <DB_Number>409063658<\/DB_Number>\n      <ZipCode>1024 NB<\/ZipCode>\n      <HouseNumber>308<\/HouseNumber>\n      <Phone>0206344005<\/Phone>\n    <\/KVKDetail>\n    <KVKDetail>\n      <KVKNumber>00001768<\/KVKNumber>\n      <CompanyName>BLOKKER B.V.<\/CompanyName>\n      <ChamberNumber>00<\/ChamberNumber>\n      <FileNumber>001768<\/FileNumber>\n      <SubFileNumber>0000<\/SubFileNumber>\n      <Date>19751114<\/Date>\n      <DB_Number>409063674<\/DB_Number>\n      <ZipCode>1025 EW<\/ZipCode>\n      <HouseNumber>82<\/HouseNumber>\n      <Phone>0206372339<\/Phone>\n    <\/KVKDetail>\n    <KVKDetail>\n      <KVKNumber>00001768<\/KVKNumber>\n      <CompanyName>BLOKKER B.V.<\/CompanyName>\n      <ChamberNumber>00<\/ChamberNumber>\n      <FileNumber>001768<\/FileNumber>\n      <SubFileNumber>0000<\/SubFileNumber>\n      <Date>19751114<\/Date>\n      <DB_Number>409063690<\/DB_Number>\n      <ZipCode>1012 NZ<\/ZipCode>\n      <HouseNumber>41<\/HouseNumber>\n      <Phone>0206234454<\/Phone>\n    <\/KVKDetail>\n    <KVKDetail>\n      <KVKNumber>00001768<\/KVKNumber>\n      <CompanyName>BLOKKER B.V.<\/CompanyName>\n      <ChamberNumber>00<\/ChamberNumber>\n      <FileNumber>001768<\/FileNumber>\n      <SubFileNumber>0000<\/SubFileNumber>\n      <Date>19751114<\/Date>\n      <DB_Number>409063708<\/DB_Number>\n      <ZipCode>1111 JD<\/ZipCode>\n      <HouseNumber>152<\/HouseNumber>\n      <Phone>0204160867<\/Phone>\n    <\/KVKDetail>\n    <KVKDetail>\n      <KVKNumber>00001768<\/KVKNumber>\n      <CompanyName>BLOKKER B.V.<\/CompanyName>\n      <ChamberNumber>00<\/ChamberNumber>\n      <FileNumber>001768<\/FileNumber>\n      <SubFileNumber>0000<\/SubFileNumber>\n      <Date>19760924<\/Date>\n      <DB_Number>409063716<\/DB_Number>\n      <ZipCode>1034 KC<\/ZipCode>\n      <HouseNumber>40<\/HouseNumber>\n      <Phone>0206310244<\/Phone>\n    <\/KVKDetail>\n    <KVKDetail>\n      <KVKNumber>00001768<\/KVKNumber>\n      <CompanyName>BLOKKER B.V.<\/CompanyName>\n      <ChamberNumber>00<\/ChamberNumber>\n      <FileNumber>001768<\/FileNumber>\n      <SubFileNumber>0000<\/SubFileNumber>\n      <Date>19800612<\/Date>\n      <DB_Number>409063831<\/DB_Number>\n      <ZipCode>8442 PH<\/ZipCode>\n      <HouseNumber>3<\/HouseNumber>\n      <Phone>0513654792<\/Phone>\n    <\/KVKDetail>\n    <KVKDetail>\n      <KVKNumber>00001768<\/KVKNumber>\n      <CompanyName>BLOKKER B.V.<\/CompanyName>\n      <ChamberNumber>00<\/ChamberNumber>\n      <FileNumber>001768<\/FileNumber>\n      <SubFileNumber>0000<\/SubFileNumber>\n      <Date>19810113<\/Date>\n      <DB_Number>409063849<\/DB_Number>\n      <ZipCode>9203 CV<\/ZipCode>\n      <HouseNumber>51<\/HouseNumber>\n      <Phone>0512540535<\/Phone>\n    <\/KVKDetail>\n    <KVKDetail>\n      <KVKNumber>00001768<\/KVKNumber>\n      <CompanyName>BLOKKER B.V.<\/CompanyName>\n      <ChamberNumber>00<\/ChamberNumber>\n      <FileNumber>001768<\/FileNumber>\n      <SubFileNumber>0000<\/SubFileNumber>\n      <Date>19801108<\/Date>\n      <DB_Number>409063856<\/DB_Number>\n      <ZipCode>8601 BS<\/ZipCode>\n      <HouseNumber>73<\/HouseNumber>\n      <Phone>0515431568<\/Phone>\n    <\/KVKDetail>\n    <KVKDetail>\n      <KVKNumber>00001768<\/KVKNumber>\n      <CompanyName>BLOKKER B.V.<\/CompanyName>\n      <ChamberNumber>00<\/ChamberNumber>\n      <FileNumber>001768<\/FileNumber>\n      <SubFileNumber>0000<\/SubFileNumber>\n      <Date>19820129<\/Date>\n      <DB_Number>409063872<\/DB_Number>\n      <ZipCode>7901 JZ<\/ZipCode>\n      <HouseNumber>242<\/HouseNumber>\n      <Phone>0528235740<\/Phone>\n    <\/KVKDetail>\n    <KVKDetail>\n      <KVKNumber>00001768<\/KVKNumber>\n      <CompanyName>BLOKKER B.V.<\/CompanyName>\n      <ChamberNumber>00<\/ChamberNumber>\n      <FileNumber>001768<\/FileNumber>\n      <SubFileNumber>0000<\/SubFileNumber>\n      <Date>19810220<\/Date>\n      <DB_Number>409063930<\/DB_Number>\n      <ZipCode>7201 LA<\/ZipCode>\n      <HouseNumber>17<\/HouseNumber>\n      <Phone>0575513240<\/Phone>\n    <\/KVKDetail>\n    <KVKDetail>\n      <KVKNumber>00001768<\/KVKNumber>\n      <CompanyName>BLOKKER B.V.<\/CompanyName>\n      <ChamberNumber>00<\/ChamberNumber>\n      <FileNumber>001768<\/FileNumber>\n      <SubFileNumber>0000<\/SubFileNumber>\n      <Date>19810716<\/Date>\n      <DB_Number>409063948<\/DB_Number>\n      <ZipCode>3771 BV<\/ZipCode>\n      <HouseNumber>46<\/HouseNumber>\n      <Phone>0342424094<\/Phone>\n    <\/KVKDetail>\n    <KVKDetail>\n      <KVKNumber>00001768<\/KVKNumber>\n      <CompanyName>BLOKKER B.V.<\/CompanyName>\n      <ChamberNumber>00<\/ChamberNumber>\n      <FileNumber>001768<\/FileNumber>\n      <SubFileNumber>0000<\/SubFileNumber>\n      <Date>19811002<\/Date>\n      <DB_Number>409063955<\/DB_Number>\n      <ZipCode>6711 AM<\/ZipCode>\n      <HouseNumber>40<\/HouseNumber>\n      <Phone>0318693385<\/Phone>\n    <\/KVKDetail>\n    <KVKDetail>\n      <KVKNumber>00001768<\/KVKNumber>\n      <CompanyName>BLOKKER B.V.<\/CompanyName>\n      <ChamberNumber>00<\/ChamberNumber>\n      <FileNumber>001768<\/FileNumber>\n      <SubFileNumber>0000<\/SubFileNumber>\n      <Date>19800627<\/Date>\n      <DB_Number>409063971<\/DB_Number>\n      <ZipCode>5801 BE<\/ZipCode>\n      <HouseNumber>39<\/HouseNumber>\n      <Phone>0478550482<\/Phone>\n    <\/KVKDetail>\n    <KVKDetail>\n      <KVKNumber>00001768<\/KVKNumber>\n      <CompanyName>BLOKKER B.V.<\/CompanyName>\n      <ChamberNumber>00<\/ChamberNumber>\n      <FileNumber>001768<\/FileNumber>\n      <SubFileNumber>0000<\/SubFileNumber>\n      <Date>19821124<\/Date>\n      <DB_Number>409063989<\/DB_Number>\n      <ZipCode>6211 EH<\/ZipCode>\n      <HouseNumber>39<\/HouseNumber>\n      <Phone>0433217172<\/Phone>\n    <\/KVKDetail>\n    <KVKDetail>\n      <KVKNumber>00001768<\/KVKNumber>\n      <CompanyName>BLOKKER B.V.<\/CompanyName>\n      <ChamberNumber>00<\/ChamberNumber>\n      <FileNumber>001768<\/FileNumber>\n      <SubFileNumber>0000<\/SubFileNumber>\n      <Date>19791016<\/Date>\n      <DB_Number>409064003<\/DB_Number>\n      <ZipCode>4901 LH<\/ZipCode>\n      <HouseNumber>18<\/HouseNumber>\n      <Phone>0162427740<\/Phone>\n    <\/KVKDetail>\n    <KVKDetail>\n      <KVKNumber>00001768<\/KVKNumber>\n      <CompanyName>BLOKKER B.V.<\/CompanyName>\n      <ChamberNumber>00<\/ChamberNumber>\n      <FileNumber>001768<\/FileNumber>\n      <SubFileNumber>0000<\/SubFileNumber>\n      <Date>19820311<\/Date>\n      <DB_Number>409064011<\/DB_Number>\n      <ZipCode>3192 HG<\/ZipCode>\n      <HouseNumber>285<\/HouseNumber>\n      <Phone>0102950924<\/Phone>\n    <\/KVKDetail>\n    <KVKDetail>\n      <KVKNumber>00001768<\/KVKNumber>\n      <CompanyName>BLOKKER B.V.<\/CompanyName>\n      <ChamberNumber>00<\/ChamberNumber>\n      <FileNumber>001768<\/FileNumber>\n      <SubFileNumber>0000<\/SubFileNumber>\n      <Date>19820501<\/Date>\n      <DB_Number>409064029<\/DB_Number>\n      <ZipCode>3042 AH<\/ZipCode>\n      <HouseNumber>156<\/HouseNumber>\n      <Phone>0102450435<\/Phone>\n    <\/KVKDetail>\n    <KVKDetail>\n      <KVKNumber>00001768<\/KVKNumber>\n      <CompanyName>BLOKKER B.V.<\/CompanyName>\n      <ChamberNumber>00<\/ChamberNumber>\n      <FileNumber>001768<\/FileNumber>\n      <SubFileNumber>0000<\/SubFileNumber>\n      <Date>19830103<\/Date>\n      <DB_Number>409064227<\/DB_Number>\n      <ZipCode>8911 CB<\/ZipCode>\n      <HouseNumber>9<\/HouseNumber>\n      <Phone>0582169867<\/Phone>\n    <\/KVKDetail>\n    <KVKDetail>\n      <KVKNumber>00001768<\/KVKNumber>\n      <CompanyName>BLOKKER B.V.<\/CompanyName>\n      <ChamberNumber>00<\/ChamberNumber>\n      <FileNumber>001768<\/FileNumber>\n      <SubFileNumber>0000<\/SubFileNumber>\n      <Date>19810813<\/Date>\n      <DB_Number>409064235<\/DB_Number>\n      <ZipCode>7311 KE<\/ZipCode>\n      <HouseNumber>68<\/HouseNumber>\n      <Phone>0555761741<\/Phone>\n    <\/KVKDetail>\n    <KVKDetail>\n      <KVKNumber>00001768<\/KVKNumber>\n      <CompanyName>BLOKKER B.V.<\/CompanyName>\n      <ChamberNumber>00<\/ChamberNumber>\n      <FileNumber>001768<\/FileNumber>\n      <SubFileNumber>0000<\/SubFileNumber>\n      <Date>19820505<\/Date>\n      <DB_Number>409064250<\/DB_Number>\n      <ZipCode>5431 DT<\/ZipCode>\n      <HouseNumber>22<\/HouseNumber>\n      <Phone>0485330937<\/Phone>\n    <\/KVKDetail>\n    <KVKDetail>\n      <KVKNumber>00001768<\/KVKNumber>\n      <CompanyName>GURU HOTEL + RESTAURANT B.V.<\/CompanyName>\n      <ChamberNumber>00<\/ChamberNumber>\n      <FileNumber>001768<\/FileNumber>\n      <SubFileNumber>0000<\/SubFileNumber>\n      <Date>19800116<\/Date>\n      <DB_Number>409074192<\/DB_Number>\n      <ZipCode>1054 GN<\/ZipCode>\n      <HouseNumber>74<\/HouseNumber>\n      <Phone>0206168221<\/Phone>\n    <\/KVKDetail>\n    <KVKDetail>\n      <KVKNumber>00001768<\/KVKNumber>\n      <CompanyName>BLOKKER B.V.<\/CompanyName>\n      <ChamberNumber>00<\/ChamberNumber>\n      <FileNumber>001768<\/FileNumber>\n      <SubFileNumber>0000<\/SubFileNumber>\n      <Date>19830317<\/Date>\n      <DB_Number>409064334<\/DB_Number>\n      <ZipCode>7462 AK<\/ZipCode>\n      <HouseNumber>5<\/HouseNumber>\n      <Phone>0548541732<\/Phone>\n    <\/KVKDetail>\n    <KVKDetail>\n      <KVKNumber>00001768<\/KVKNumber>\n      <CompanyName>BLOKKER B.V.<\/CompanyName>\n      <ChamberNumber>00<\/ChamberNumber>\n      <FileNumber>001768<\/FileNumber>\n      <SubFileNumber>0000<\/SubFileNumber>\n      <Date>19830324<\/Date>\n      <DB_Number>409064367<\/DB_Number>\n      <ZipCode>6811 BL<\/ZipCode>\n      <HouseNumber>23<\/HouseNumber>\n      <Phone>0264457320<\/Phone>\n    <\/KVKDetail>\n    <KVKDetail>\n      <KVKNumber>00001768<\/KVKNumber>\n      <CompanyName>BLOKKER B.V.<\/CompanyName>\n      <ChamberNumber>00<\/ChamberNumber>\n      <FileNumber>001768<\/FileNumber>\n      <SubFileNumber>0000<\/SubFileNumber>\n      <Date>19830501<\/Date>\n      <DB_Number>409064375<\/DB_Number>\n      <ZipCode>6901 AK<\/ZipCode>\n      <HouseNumber>25<\/HouseNumber>\n      <Phone>0316343052<\/Phone>\n    <\/KVKDetail>\n    <KVKDetail>\n      <KVKNumber>00001768<\/KVKNumber>\n      <CompanyName>BLOKKER B.V.<\/CompanyName>\n      <ChamberNumber>00<\/ChamberNumber>\n      <FileNumber>001768<\/FileNumber>\n      <SubFileNumber>0000<\/SubFileNumber>\n      <Date>19830310<\/Date>\n      <DB_Number>409064383<\/DB_Number>\n      <ZipCode>4701 AA<\/ZipCode>\n      <HouseNumber>7<\/HouseNumber>\n      <Phone>0165396041<\/Phone>\n    <\/KVKDetail>\n    <KVKDetail>\n      <KVKNumber>00001768<\/KVKNumber>\n      <CompanyName>BLOKKER B.V.<\/CompanyName>\n      <ChamberNumber>00<\/ChamberNumber>\n      <FileNumber>001768<\/FileNumber>\n      <SubFileNumber>0000<\/SubFileNumber>\n      <Date>19830728<\/Date>\n      <DB_Number>409064433<\/DB_Number>\n      <ZipCode>5613 DG<\/ZipCode>\n      <HouseNumber>221<\/HouseNumber>\n      <Phone>0402961982<\/Phone>\n    <\/KVKDetail>\n    <KVKDetail>\n      <KVKNumber>00001768<\/KVKNumber>\n      <CompanyName>BLOKKER B.V.<\/CompanyName>\n      <ChamberNumber>00<\/ChamberNumber>\n      <FileNumber>001768<\/FileNumber>\n      <SubFileNumber>0000<\/SubFileNumber>\n      <Date>19830929<\/Date>\n      <DB_Number>409064466<\/DB_Number>\n      <ZipCode>7941 AA<\/ZipCode>\n      <HouseNumber>19<\/HouseNumber>\n      <Phone>0522241827<\/Phone>\n    <\/KVKDetail>\n    <KVKDetail>\n      <KVKNumber>00001768<\/KVKNumber>\n      <CompanyName>BLOKKER B.V.<\/CompanyName>\n      <ChamberNumber>00<\/ChamberNumber>\n      <FileNumber>001768<\/FileNumber>\n      <SubFileNumber>0000<\/SubFileNumber>\n      <Date>19831013<\/Date>\n      <DB_Number>409064508<\/DB_Number>\n      <ZipCode>4461 DB<\/ZipCode>\n      <HouseNumber>28<\/HouseNumber>\n      <Phone>0113271814<\/Phone>\n    <\/KVKDetail>\n    <KVKDetail>\n      <KVKNumber>00001768<\/KVKNumber>\n      <CompanyName>BLOKKER B.V.<\/CompanyName>\n      <ChamberNumber>00<\/ChamberNumber>\n      <FileNumber>001768<\/FileNumber>\n      <SubFileNumber>0000<\/SubFileNumber>\n      <Date>19831110<\/Date>\n      <DB_Number>409064524<\/DB_Number>\n      <ZipCode>9712 NP<\/ZipCode>\n      <HouseNumber>92<\/HouseNumber>\n      <Phone>0503132137<\/Phone>\n    <\/KVKDetail>\n    <KVKDetail>\n      <KVKNumber>00001768<\/KVKNumber>\n      <CompanyName>BLOKKER B.V.<\/CompanyName>\n      <ChamberNumber>00<\/ChamberNumber>\n      <FileNumber>001768<\/FileNumber>\n      <SubFileNumber>0000<\/SubFileNumber>\n      <Date>19840126<\/Date>\n      <DB_Number>409064565<\/DB_Number>\n      <ZipCode>8501 AJ<\/ZipCode>\n      <HouseNumber>115<\/HouseNumber>\n      <Phone>0513416444<\/Phone>\n    <\/KVKDetail>\n    <KVKDetail>\n      <KVKNumber>00001768<\/KVKNumber>\n      <CompanyName>BLOKKER B.V.<\/CompanyName>\n      <ChamberNumber>00<\/ChamberNumber>\n      <FileNumber>001768<\/FileNumber>\n      <SubFileNumber>0000<\/SubFileNumber>\n      <Date>19840322<\/Date>\n      <DB_Number>409064599<\/DB_Number>\n      <ZipCode>6881 TD<\/ZipCode>\n      <HouseNumber>79<\/HouseNumber>\n      <Phone>0263882819<\/Phone>\n    <\/KVKDetail>\n    <KVKDetail>\n      <KVKNumber>00001768<\/KVKNumber>\n      <CompanyName>BLOKKER B.V.<\/CompanyName>\n      <ChamberNumber>00<\/ChamberNumber>\n      <FileNumber>001768<\/FileNumber>\n      <SubFileNumber>0000<\/SubFileNumber>\n      <Date>19840411<\/Date>\n      <DB_Number>409064623<\/DB_Number>\n      <ZipCode>4811 JH<\/ZipCode>\n      <HouseNumber>14<\/HouseNumber>\n      <Phone>0765310613<\/Phone>\n    <\/KVKDetail>\n    <KVKDetail>\n      <KVKNumber>00001768<\/KVKNumber>\n      <CompanyName>BLOKKER B.V.<\/CompanyName>\n      <ChamberNumber>00<\/ChamberNumber>\n      <FileNumber>001768<\/FileNumber>\n      <SubFileNumber>0000<\/SubFileNumber>\n      <Date>19840503<\/Date>\n      <DB_Number>409064649<\/DB_Number>\n      <ZipCode>9231 CX<\/ZipCode>\n      <HouseNumber>32<\/HouseNumber>\n      <Phone>0512363930<\/Phone>\n    <\/KVKDetail>\n    <KVKDetail>\n      <KVKNumber>00001768<\/KVKNumber>\n      <CompanyName>BLOKKER B.V.<\/CompanyName>\n      <ChamberNumber>00<\/ChamberNumber>\n      <FileNumber>001768<\/FileNumber>\n      <SubFileNumber>0000<\/SubFileNumber>\n      <Date>19840126<\/Date>\n      <DB_Number>409064680<\/DB_Number>\n      <ZipCode>5702 HW<\/ZipCode>\n      <HouseNumber>49<\/HouseNumber>\n      <Phone>0492590851<\/Phone>\n    <\/KVKDetail>\n    <KVKDetail>\n      <KVKNumber>00001768<\/KVKNumber>\n      <CompanyName>BLOKKER B.V.<\/CompanyName>\n      <ChamberNumber>00<\/ChamberNumber>\n      <FileNumber>001768<\/FileNumber>\n      <SubFileNumber>0000<\/SubFileNumber>\n      <Date>19111111<\/Date>\n      <DB_Number>409064698<\/DB_Number>\n      <ZipCode>1062 HR<\/ZipCode>\n      <HouseNumber>10<\/HouseNumber>\n      <Phone>0204081236<\/Phone>\n    <\/KVKDetail>\n    <KVKDetail>\n      <KVKNumber>00001768<\/KVKNumber>\n      <CompanyName>BLOKKER B.V.<\/CompanyName>\n      <ChamberNumber>00<\/ChamberNumber>\n      <FileNumber>001768<\/FileNumber>\n      <SubFileNumber>0000<\/SubFileNumber>\n      <Date>19840830<\/Date>\n      <DB_Number>409064714<\/DB_Number>\n      <ZipCode>6291 AL<\/ZipCode>\n      <HouseNumber>4<\/HouseNumber>\n      <Phone>0433080122<\/Phone>\n    <\/KVKDetail>\n    <KVKDetail>\n      <KVKNumber>00001768<\/KVKNumber>\n      <CompanyName>BLOKKER B.V.<\/CompanyName>\n      <ChamberNumber>00<\/ChamberNumber>\n      <FileNumber>001768<\/FileNumber>\n      <SubFileNumber>0000<\/SubFileNumber>\n      <Date>19840920<\/Date>\n      <DB_Number>409064722<\/DB_Number>\n      <ZipCode>6216 CE<\/ZipCode>\n      <HouseNumber>14<\/HouseNumber>\n      <Phone>0433436752<\/Phone>\n    <\/KVKDetail>\n    <KVKDetail>\n      <KVKNumber>00001768<\/KVKNumber>\n      <CompanyName>BLOKKER B.V.<\/CompanyName>\n      <ChamberNumber>00<\/ChamberNumber>\n      <FileNumber>001768<\/FileNumber>\n      <SubFileNumber>0000<\/SubFileNumber>\n      <Date>19840607<\/Date>\n      <DB_Number>409064730<\/DB_Number>\n      <ZipCode>6021 CA<\/ZipCode>\n      <HouseNumber>1<\/HouseNumber>\n      <Phone>0495430113<\/Phone>\n    <\/KVKDetail>\n    <KVKDetail>\n      <KVKNumber>00001768<\/KVKNumber>\n      <CompanyName>BLOKKER B.V.<\/CompanyName>\n      <ChamberNumber>00<\/ChamberNumber>\n      <FileNumber>001768<\/FileNumber>\n      <SubFileNumber>0000<\/SubFileNumber>\n      <Date>19841120<\/Date>\n      <DB_Number>409393527<\/DB_Number>\n      <ZipCode>4331 AN<\/ZipCode>\n      <HouseNumber>12<\/HouseNumber>\n      <Phone>0118618051<\/Phone>\n    <\/KVKDetail>\n    <KVKDetail>\n      <KVKNumber>00001768<\/KVKNumber>\n      <CompanyName>FLETCHER HOTEL EXPLOITATIES B.V.<\/CompanyName>\n      <ChamberNumber>00<\/ChamberNumber>\n      <FileNumber>001768<\/FileNumber>\n      <SubFileNumber>0000<\/SubFileNumber>\n      <Date>19980928<\/Date>\n      <DB_Number>409811275<\/DB_Number>\n      <ZipCode>8911 HJ<\/ZipCode>\n      <HouseNumber>29<\/HouseNumber>\n      <Phone>0582162180<\/Phone>\n    <\/KVKDetail>\n    <KVKDetail>\n      <KVKNumber>00001768<\/KVKNumber>\n      <CompanyName>BLOKKER B.V.<\/CompanyName>\n      <ChamberNumber>00<\/ChamberNumber>\n      <FileNumber>001768<\/FileNumber>\n      <SubFileNumber>0000<\/SubFileNumber>\n      <Date>19870226<\/Date>\n      <DB_Number>410983217<\/DB_Number>\n      <ZipCode>1078 HC<\/ZipCode>\n      <HouseNumber>37<\/HouseNumber>\n      <Phone>0206750709<\/Phone>\n    <\/KVKDetail>\n    <KVKDetail>\n      <KVKNumber>00001768<\/KVKNumber>\n      <CompanyName>BLOKKER B.V.<\/CompanyName>\n      <ChamberNumber>00<\/ChamberNumber>\n      <FileNumber>001768<\/FileNumber>\n      <SubFileNumber>0000<\/SubFileNumber>\n      <Date>19841101<\/Date>\n      <DB_Number>411171416<\/DB_Number>\n      <ZipCode>3231 BE<\/ZipCode>\n      <HouseNumber>911<\/HouseNumber>\n      <Phone>0181479081<\/Phone>\n    <\/KVKDetail>\n    <KVKDetail>\n      <KVKNumber>00001768<\/KVKNumber>\n      <CompanyName>BLOKKER B.V.<\/CompanyName>\n      <ChamberNumber>00<\/ChamberNumber>\n      <FileNumber>001768<\/FileNumber>\n      <SubFileNumber>0000<\/SubFileNumber>\n      <Date>19821020<\/Date>\n      <DB_Number>411171432<\/DB_Number>\n      <ZipCode>3131 CN<\/ZipCode>\n      <HouseNumber>26<\/HouseNumber>\n      <Phone>0202480062<\/Phone>\n    <\/KVKDetail>\n    <KVKDetail>\n      <KVKNumber>00001768<\/KVKNumber>\n      <CompanyName>BLOKKER B.V.<\/CompanyName>\n      <ChamberNumber>00<\/ChamberNumber>\n      <FileNumber>001768<\/FileNumber>\n      <SubFileNumber>0000<\/SubFileNumber>\n      <Date>19820422<\/Date>\n      <DB_Number>411171440<\/DB_Number>\n      <ZipCode>3181 CE<\/ZipCode>\n      <HouseNumber>25<\/HouseNumber>\n      <Phone>0181297036<\/Phone>\n    <\/KVKDetail>\n    <KVKDetail>\n      <KVKNumber>00001768<\/KVKNumber>\n      <CompanyName>BLOKKER B.V.<\/CompanyName>\n      <ChamberNumber>00<\/ChamberNumber>\n      <FileNumber>001768<\/FileNumber>\n      <SubFileNumber>0000<\/SubFileNumber>\n      <Date>19830928<\/Date>\n      <DB_Number>411171457<\/DB_Number>\n      <ZipCode>3201 EN<\/ZipCode>\n      <HouseNumber>139<\/HouseNumber>\n      <Phone>0181697214<\/Phone>\n    <\/KVKDetail>\n    <KVKDetail>\n      <KVKNumber>00001768<\/KVKNumber>\n      <CompanyName>BLOKKER B.V.<\/CompanyName>\n      <ChamberNumber>00<\/ChamberNumber>\n      <FileNumber>001768<\/FileNumber>\n      <SubFileNumber>0000<\/SubFileNumber>\n      <Date>19820408<\/Date>\n      <DB_Number>411171465<\/DB_Number>\n      <ZipCode>3132 CL<\/ZipCode>\n      <HouseNumber>21<\/HouseNumber>\n      <Phone>0102487642<\/Phone>\n    <\/KVKDetail>\n    <KVKDetail>\n      <KVKNumber>00001768<\/KVKNumber>\n      <CompanyName>BLOKKER B.V.<\/CompanyName>\n      <ChamberNumber>00<\/ChamberNumber>\n      <FileNumber>001768<\/FileNumber>\n      <SubFileNumber>0000<\/SubFileNumber>\n      <Date>19771117<\/Date>\n      <DB_Number>411075716<\/DB_Number>\n      <ZipCode>9401 DL<\/ZipCode>\n      <HouseNumber>56<\/HouseNumber>\n      <Phone>0592300069<\/Phone>\n    <\/KVKDetail>\n    <KVKDetail>\n      <KVKNumber>00001768<\/KVKNumber>\n      <CompanyName>BLOKKER B.V.<\/CompanyName>\n      <ChamberNumber>00<\/ChamberNumber>\n      <FileNumber>001768<\/FileNumber>\n      <SubFileNumber>0000<\/SubFileNumber>\n      <Date>19850502<\/Date>\n      <DB_Number>411092893<\/DB_Number>\n      <ZipCode>5612 CT<\/ZipCode>\n      <HouseNumber>49<\/HouseNumber>\n      <Phone>0402370222<\/Phone>\n    <\/KVKDetail>\n    <KVKDetail>\n      <KVKNumber>00001768<\/KVKNumber>\n      <CompanyName>BLOKKER B.V.<\/CompanyName>\n      <ChamberNumber>00<\/ChamberNumber>\n      <FileNumber>001768<\/FileNumber>\n      <SubFileNumber>0000<\/SubFileNumber>\n      <Date>19860731<\/Date>\n      <DB_Number>411581960<\/DB_Number>\n      <ZipCode>6951 CW<\/ZipCode>\n      <HouseNumber>1<\/HouseNumber>\n      <Phone>0313415035<\/Phone>\n    <\/KVKDetail>\n    <KVKDetail>\n      <KVKNumber>00001768<\/KVKNumber>\n      <CompanyName>FLETCHER HOTEL EXPLOITATIES B.V.<\/CompanyName>\n      <ChamberNumber>00<\/ChamberNumber>\n      <FileNumber>001768<\/FileNumber>\n      <SubFileNumber>0000<\/SubFileNumber>\n      <Date>19900715<\/Date>\n      <DB_Number>413404059<\/DB_Number>\n      <ZipCode>7447 HB<\/ZipCode>\n      <HouseNumber>9<\/HouseNumber>\n      <Phone>0548655425<\/Phone>\n    <\/KVKDetail>\n    <KVKDetail>\n      <KVKNumber>00001768<\/KVKNumber>\n      <CompanyName>BOETIEK PHILIPPINE B.V.<\/CompanyName>\n      <ChamberNumber>00<\/ChamberNumber>\n      <FileNumber>001768<\/FileNumber>\n      <SubFileNumber>0000<\/SubFileNumber>\n      <Date>19111111<\/Date>\n      <DB_Number>414041769<\/DB_Number>\n      <ZipCode>1506 CZ<\/ZipCode>\n      <HouseNumber>134<\/HouseNumber>\n      <Phone>0756312517<\/Phone>\n    <\/KVKDetail>\n    <KVKDetail>\n      <KVKNumber>00001768<\/KVKNumber>\n      <CompanyName>FLETCHER HOTEL EXPLOITATIES B.V.<\/CompanyName>\n      <ChamberNumber>00<\/ChamberNumber>\n      <FileNumber>001768<\/FileNumber>\n      <SubFileNumber>0000<\/SubFileNumber>\n      <Date>20070601<\/Date>\n      <DB_Number>415062293<\/DB_Number>\n      <ZipCode>6301 KC<\/ZipCode>\n      <HouseNumber>66<\/HouseNumber>\n      <Phone>0436040415<\/Phone>\n    <\/KVKDetail>\n    <KVKDetail>\n      <KVKNumber>00001768<\/KVKNumber>\n      <CompanyName>BLOKKER B.V.<\/CompanyName>\n      <ChamberNumber>00<\/ChamberNumber>\n      <FileNumber>001768<\/FileNumber>\n      <SubFileNumber>0000<\/SubFileNumber>\n      <Date>19111111<\/Date>\n      <DB_Number>415352822<\/DB_Number>\n      <ZipCode>1421 SB<\/ZipCode>\n      <HouseNumber>35<\/HouseNumber>\n      <Phone>0297521449<\/Phone>\n    <\/KVKDetail>\n    <KVKDetail>\n      <KVKNumber>00001768<\/KVKNumber>\n      <CompanyName>BLOKKER B.V.<\/CompanyName>\n      <ChamberNumber>00<\/ChamberNumber>\n      <FileNumber>001768<\/FileNumber>\n      <SubFileNumber>0000<\/SubFileNumber>\n      <Date>19851108<\/Date>\n      <DB_Number>416804771<\/DB_Number>\n      <ZipCode>5931 NN<\/ZipCode>\n      <HouseNumber>16<\/HouseNumber>\n      <Phone>0773260187<\/Phone>\n    <\/KVKDetail>\n    <KVKDetail>\n      <KVKNumber>00001768<\/KVKNumber>\n      <CompanyName>BLOKKER B.V.<\/CompanyName>\n      <ChamberNumber>00<\/ChamberNumber>\n      <FileNumber>001768<\/FileNumber>\n      <SubFileNumber>0000<\/SubFileNumber>\n      <Date>19860301<\/Date>\n      <DB_Number>416816452<\/DB_Number>\n      <ZipCode>5654 AZ<\/ZipCode>\n      <HouseNumber>1<\/HouseNumber>\n      <Phone>0402910962<\/Phone>\n    <\/KVKDetail>\n    <KVKDetail>\n      <KVKNumber>00001768<\/KVKNumber>\n      <CompanyName>VAN EDE &amp; PARTNERS B.V.<\/CompanyName>\n      <ChamberNumber>00<\/ChamberNumber>\n      <FileNumber>001768<\/FileNumber>\n      <SubFileNumber>0000<\/SubFileNumber>\n      <Date>20060401<\/Date>\n      <DB_Number>489302127<\/DB_Number>\n      <ZipCode>6229 EM<\/ZipCode>\n      <HouseNumber>24<\/HouseNumber>\n      <Phone>0433257651<\/Phone>\n    <\/KVKDetail>\n    <KVKDetail>\n      <KVKNumber>00001768<\/KVKNumber>\n      <CompanyName>FLETCHER HOTEL EXPLOITATIES B.V.<\/CompanyName>\n      <ChamberNumber>00<\/ChamberNumber>\n      <FileNumber>001768<\/FileNumber>\n      <SubFileNumber>0000<\/SubFileNumber>\n      <Date>19410801<\/Date>\n      <DB_Number>489295226<\/DB_Number>\n      <ZipCode>7361 CN<\/ZipCode>\n      <HouseNumber>520<\/HouseNumber>\n      <Phone>0555061393<\/Phone>\n    <\/KVKDetail>\n    <KVKDetail>\n      <KVKNumber>00001768<\/KVKNumber>\n      <CompanyName>PLUIM &amp; DE HAAS B.V.<\/CompanyName>\n      <ChamberNumber>00<\/ChamberNumber>\n      <FileNumber>001768<\/FileNumber>\n      <SubFileNumber>0000<\/SubFileNumber>\n      <Date>19930401<\/Date>\n      <DB_Number>489509752<\/DB_Number>\n      <ZipCode>6881 TR<\/ZipCode>\n      <HouseNumber>230<\/HouseNumber>\n      <Phone>0263646877<\/Phone>\n    <\/KVKDetail>\n    <KVKDetail>\n      <KVKNumber>00001768<\/KVKNumber>\n      <CompanyName>PLUIM &amp; DE HAAS B.V.<\/CompanyName>\n      <ChamberNumber>00<\/ChamberNumber>\n      <FileNumber>001768<\/FileNumber>\n      <SubFileNumber>0000<\/SubFileNumber>\n      <Date>19730701<\/Date>\n      <DB_Number>489509760<\/DB_Number>\n      <ZipCode>6811 DE<\/ZipCode>\n      <HouseNumber>4<\/HouseNumber>\n      <Phone>0264423303<\/Phone>\n    <\/KVKDetail>\n    <KVKDetail>\n      <KVKNumber>00001768<\/KVKNumber>\n      <CompanyName>PLUIM &amp; DE HAAS B.V.<\/CompanyName>\n      <ChamberNumber>00<\/ChamberNumber>\n      <FileNumber>001768<\/FileNumber>\n      <SubFileNumber>0000<\/SubFileNumber>\n      <Date>19590826<\/Date>\n      <DB_Number>489509786<\/DB_Number>\n      <ZipCode>6815 BM<\/ZipCode>\n      <HouseNumber>68<\/HouseNumber>\n      <Phone>0264421053<\/Phone>\n    <\/KVKDetail>\n    <KVKDetail>\n      <KVKNumber>00001768<\/KVKNumber>\n      <CompanyName>FLETCHER HOTEL EXPLOITATIES B.V.<\/CompanyName>\n      <ChamberNumber>00<\/ChamberNumber>\n      <FileNumber>001768<\/FileNumber>\n      <SubFileNumber>0000<\/SubFileNumber>\n      <Date>20070101<\/Date>\n      <DB_Number>489529670<\/DB_Number>\n      <ZipCode>2204 AT<\/ZipCode>\n      <HouseNumber>117<\/HouseNumber>\n      <Phone>0252242900<\/Phone>\n    <\/KVKDetail>\n    <KVKDetail>\n      <KVKNumber>00001768<\/KVKNumber>\n      <CompanyName>FLETCHER HOTEL EXPLOITATIES B.V.<\/CompanyName>\n      <ChamberNumber>00<\/ChamberNumber>\n      <FileNumber>001768<\/FileNumber>\n      <SubFileNumber>0000<\/SubFileNumber>\n      <Date>20060815<\/Date>\n      <DB_Number>489529671<\/DB_Number>\n      <ZipCode>9765 TA<\/ZipCode>\n      <HouseNumber>19<\/HouseNumber>\n      <Phone>0503095400<\/Phone>\n    <\/KVKDetail>\n    <KVKDetail>\n      <KVKNumber>00001768<\/KVKNumber>\n      <CompanyName>FLETCHER HOTEL EXPLOITATIES B.V.<\/CompanyName>\n      <ChamberNumber>00<\/ChamberNumber>\n      <FileNumber>001768<\/FileNumber>\n      <SubFileNumber>0000<\/SubFileNumber>\n      <Date>19831104<\/Date>\n      <DB_Number>489529673<\/DB_Number>\n      <ZipCode>1759 NB<\/ZipCode>\n      <HouseNumber>26<\/HouseNumber>\n      <Phone>0224582222<\/Phone>\n    <\/KVKDetail>\n    <KVKDetail>\n      <KVKNumber>00001768<\/KVKNumber>\n      <CompanyName>EXPLOITATIEMAATSCHAPPIJ DE BINNENHOF B.V.<\/CompanyName>\n      <ChamberNumber>00<\/ChamberNumber>\n      <FileNumber>001768<\/FileNumber>\n      <SubFileNumber>0000<\/SubFileNumber>\n      <Date>20090417<\/Date>\n      <DB_Number>491184831<\/DB_Number>\n      <ZipCode>1213 VL<\/ZipCode>\n      <HouseNumber>1<\/HouseNumber>\n      <Phone>0640464466<\/Phone>\n    <\/KVKDetail>\n    <KVKDetail>\n      <KVKNumber>00001768<\/KVKNumber>\n      <CompanyName>THIJS BRAND TWEEWIELERS B.V.<\/CompanyName>\n      <ChamberNumber>00<\/ChamberNumber>\n      <FileNumber>001768<\/FileNumber>\n      <SubFileNumber>0000<\/SubFileNumber>\n      <Date>19111111<\/Date>\n      <DB_Number>387357635<\/DB_Number>\n      <ZipCode>2713 ES<\/ZipCode>\n      <HouseNumber>43<\/HouseNumber>\n      <Phone>0654753759<\/Phone>\n    <\/KVKDetail>\n    <KVKDetail>\n      <KVKNumber>00001768<\/KVKNumber>\n      <CompanyName>BLOKKER B.V.<\/CompanyName>\n      <ChamberNumber>00<\/ChamberNumber>\n      <FileNumber>001768<\/FileNumber>\n      <SubFileNumber>0000<\/SubFileNumber>\n      <Date>19800428<\/Date>\n      <DB_Number>402014042<\/DB_Number>\n      <ZipCode>5401 GG<\/ZipCode>\n      <HouseNumber>35<\/HouseNumber>\n      <Phone>0413331084<\/Phone>\n    <\/KVKDetail>\n    <KVKDetail>\n      <KVKNumber>00001768<\/KVKNumber>\n      <CompanyName>G\u00c9VIERDALES B.V.<\/CompanyName>\n      <ChamberNumber>00<\/ChamberNumber>\n      <FileNumber>001768<\/FileNumber>\n      <SubFileNumber>0000<\/SubFileNumber>\n      <Date>19920701<\/Date>\n      <DB_Number>402019918<\/DB_Number>\n      <ZipCode>9206 AP<\/ZipCode>\n      <HouseNumber>79<\/HouseNumber>\n      <Phone>0512542202<\/Phone>\n    <\/KVKDetail>\n    <KVKDetail>\n      <KVKNumber>00001768<\/KVKNumber>\n      <CompanyName>BLOKKER B.V.<\/CompanyName>\n      <ChamberNumber>00<\/ChamberNumber>\n      <FileNumber>001768<\/FileNumber>\n      <SubFileNumber>0000<\/SubFileNumber>\n      <Date>19800718<\/Date>\n      <DB_Number>402034438<\/DB_Number>\n      <ZipCode>8302 EH<\/ZipCode>\n      <HouseNumber>23<\/HouseNumber>\n      <Phone>0527698625<\/Phone>\n    <\/KVKDetail>\n    <KVKDetail>\n      <KVKNumber>00001768<\/KVKNumber>\n      <CompanyName>BLOKKER B.V.<\/CompanyName>\n      <ChamberNumber>00<\/ChamberNumber>\n      <FileNumber>001768<\/FileNumber>\n      <SubFileNumber>0000<\/SubFileNumber>\n      <Date>19811030<\/Date>\n      <DB_Number>402034446<\/DB_Number>\n      <ZipCode>1353 AW<\/ZipCode>\n      <HouseNumber>3<\/HouseNumber>\n      <Phone>0365386955<\/Phone>\n    <\/KVKDetail>\n    <KVKDetail>\n      <KVKNumber>00001768<\/KVKNumber>\n      <CompanyName>BLOKKER B.V.<\/CompanyName>\n      <ChamberNumber>00<\/ChamberNumber>\n      <FileNumber>001768<\/FileNumber>\n      <SubFileNumber>0000<\/SubFileNumber>\n      <Date>19861009<\/Date>\n      <DB_Number>402034453<\/DB_Number>\n      <ZipCode>1315 VH<\/ZipCode>\n      <HouseNumber>33<\/HouseNumber>\n      <Phone>0365300281<\/Phone>\n    <\/KVKDetail>\n    <KVKDetail>\n      <KVKNumber>00001768<\/KVKNumber>\n      <CompanyName>FLETCHER HOTEL EXPLOITATIES B.V.<\/CompanyName>\n      <ChamberNumber>00<\/ChamberNumber>\n      <FileNumber>001768<\/FileNumber>\n      <SubFileNumber>0000<\/SubFileNumber>\n      <Date>20000301<\/Date>\n      <DB_Number>405134607<\/DB_Number>\n      <ZipCode>6301 HM<\/ZipCode>\n      <HouseNumber>2<\/HouseNumber>\n      <Phone>0435216463<\/Phone>\n    <\/KVKDetail>\n    <KVKDetail>\n      <KVKNumber>00001768<\/KVKNumber>\n      <CompanyName>SOFINE FOODS B.V.<\/CompanyName>\n      <ChamberNumber>00<\/ChamberNumber>\n      <FileNumber>001768<\/FileNumber>\n      <SubFileNumber>0000<\/SubFileNumber>\n      <Date>20010723<\/Date>\n      <DB_Number>406606421<\/DB_Number>\n      <ZipCode>6374 AG<\/ZipCode>\n      <HouseNumber>9<\/HouseNumber>\n      <Phone \/>\n    <\/KVKDetail>\n    <KVKDetail>\n      <KVKNumber>00001768<\/KVKNumber>\n      <CompanyName>SOFINE FOODS B.V.<\/CompanyName>\n      <ChamberNumber>00<\/ChamberNumber>\n      <FileNumber>001768<\/FileNumber>\n      <SubFileNumber>0000<\/SubFileNumber>\n      <Date>20010723<\/Date>\n      <DB_Number>406606439<\/DB_Number>\n      <ZipCode>6374 AE<\/ZipCode>\n      <HouseNumber>30<\/HouseNumber>\n      <Phone \/>\n    <\/KVKDetail>\n    <KVKDetail>\n      <KVKNumber>00001768<\/KVKNumber>\n      <CompanyName>BLOKKER B.V.<\/CompanyName>\n      <ChamberNumber>00<\/ChamberNumber>\n      <FileNumber>001768<\/FileNumber>\n      <SubFileNumber>0000<\/SubFileNumber>\n      <Date>19841108<\/Date>\n      <DB_Number>409393568<\/DB_Number>\n      <ZipCode>1107 ES<\/ZipCode>\n      <HouseNumber>130<\/HouseNumber>\n      <Phone>0204530461<\/Phone>\n    <\/KVKDetail>\n    <KVKDetail>\n      <KVKNumber>00001768<\/KVKNumber>\n      <CompanyName>BLOKKER B.V.<\/CompanyName>\n      <ChamberNumber>00<\/ChamberNumber>\n      <FileNumber>001768<\/FileNumber>\n      <SubFileNumber>0000<\/SubFileNumber>\n      <Date>19851230<\/Date>\n      <DB_Number>411006133<\/DB_Number>\n      <ZipCode>8261 CR<\/ZipCode>\n      <HouseNumber>40<\/HouseNumber>\n      <Phone>0383332048<\/Phone>\n    <\/KVKDetail>\n    <KVKDetail>\n      <KVKNumber>00001768<\/KVKNumber>\n      <CompanyName>BLOKKER B.V.<\/CompanyName>\n      <ChamberNumber>00<\/ChamberNumber>\n      <FileNumber>001768<\/FileNumber>\n      <SubFileNumber>0000<\/SubFileNumber>\n      <Date>19850228<\/Date>\n      <DB_Number>411079833<\/DB_Number>\n      <ZipCode>7608 KG<\/ZipCode>\n      <HouseNumber>21<\/HouseNumber>\n      <Phone>0546491057<\/Phone>\n    <\/KVKDetail>\n    <KVKDetail>\n      <KVKNumber>00001768<\/KVKNumber>\n      <CompanyName>BLOKKER B.V.<\/CompanyName>\n      <ChamberNumber>00<\/ChamberNumber>\n      <FileNumber>001768<\/FileNumber>\n      <SubFileNumber>0000<\/SubFileNumber>\n      <Date>19850627<\/Date>\n      <DB_Number>411079841<\/DB_Number>\n      <ZipCode>7523 GH<\/ZipCode>\n      <HouseNumber>62<\/HouseNumber>\n      <Phone>0534340735<\/Phone>\n    <\/KVKDetail>\n    <KVKDetail>\n      <KVKNumber>00001768<\/KVKNumber>\n      <CompanyName>BLOKKER B.V.<\/CompanyName>\n      <ChamberNumber>00<\/ChamberNumber>\n      <FileNumber>001768<\/FileNumber>\n      <SubFileNumber>0000<\/SubFileNumber>\n      <Date>19860710<\/Date>\n      <DB_Number>411237837<\/DB_Number>\n      <ZipCode>1013 JE<\/ZipCode>\n      <HouseNumber>72<\/HouseNumber>\n      <Phone>0206239758<\/Phone>\n    <\/KVKDetail>\n    <KVKDetail>\n      <KVKNumber>00001768<\/KVKNumber>\n      <CompanyName>BLOKKER B.V.<\/CompanyName>\n      <ChamberNumber>00<\/ChamberNumber>\n      <FileNumber>001768<\/FileNumber>\n      <SubFileNumber>0000<\/SubFileNumber>\n      <Date>19850328<\/Date>\n      <DB_Number>411264682<\/DB_Number>\n      <ZipCode>7323 EJ<\/ZipCode>\n      <HouseNumber>10<\/HouseNumber>\n      <Phone>0553603658<\/Phone>\n    <\/KVKDetail>\n    <KVKDetail>\n      <KVKNumber>00001768<\/KVKNumber>\n      <CompanyName>BLOKKER B.V.<\/CompanyName>\n      <ChamberNumber>00<\/ChamberNumber>\n      <FileNumber>001768<\/FileNumber>\n      <SubFileNumber>0000<\/SubFileNumber>\n      <Date>19890413<\/Date>\n      <DB_Number>412837833<\/DB_Number>\n      <ZipCode>1188 ND<\/ZipCode>\n      <HouseNumber>56<\/HouseNumber>\n      <Phone>0204416598<\/Phone>\n    <\/KVKDetail>\n    <KVKDetail>\n      <KVKNumber>00001768<\/KVKNumber>\n      <CompanyName>BLOKKER B.V.<\/CompanyName>\n      <ChamberNumber>00<\/ChamberNumber>\n      <FileNumber>001768<\/FileNumber>\n      <SubFileNumber>0000<\/SubFileNumber>\n      <Date>19890511<\/Date>\n      <DB_Number>412986960<\/DB_Number>\n      <ZipCode>1055 EK<\/ZipCode>\n      <HouseNumber>140<\/HouseNumber>\n      <Phone>0206822411<\/Phone>\n    <\/KVKDetail>\n    <KVKDetail>\n      <KVKNumber>00001768<\/KVKNumber>\n      <CompanyName>FLETCHER HOTEL EXPLOITATIES B.V.<\/CompanyName>\n      <ChamberNumber>00<\/ChamberNumber>\n      <FileNumber>001768<\/FileNumber>\n      <SubFileNumber>0000<\/SubFileNumber>\n      <Date>20041118<\/Date>\n      <DB_Number>413155214<\/DB_Number>\n      <ZipCode>2242 PJ<\/ZipCode>\n      <HouseNumber>26<\/HouseNumber>\n      <Phone>0705119332<\/Phone>\n    <\/KVKDetail>\n    <KVKDetail>\n      <KVKNumber>00001768<\/KVKNumber>\n      <CompanyName>FLETCHER HOTEL EXPLOITATIES B.V.<\/CompanyName>\n      <ChamberNumber>00<\/ChamberNumber>\n      <FileNumber>001768<\/FileNumber>\n      <SubFileNumber>0000<\/SubFileNumber>\n      <Date>20041015<\/Date>\n      <DB_Number>413133120<\/DB_Number>\n      <ZipCode>8431 ET<\/ZipCode>\n      <HouseNumber>1<\/HouseNumber>\n      <Phone>0516512430<\/Phone>\n    <\/KVKDetail>\n    <KVKDetail>\n      <KVKNumber>00001768<\/KVKNumber>\n      <CompanyName>FLETCHER HOTEL EXPLOITATIES B.V.<\/CompanyName>\n      <ChamberNumber>00<\/ChamberNumber>\n      <FileNumber>001768<\/FileNumber>\n      <SubFileNumber>0000<\/SubFileNumber>\n      <Date>19540701<\/Date>\n      <DB_Number>414129960<\/DB_Number>\n      <ZipCode>7241 JR<\/ZipCode>\n      <HouseNumber>2<\/HouseNumber>\n      <Phone>0573254751<\/Phone>\n    <\/KVKDetail>\n    <KVKDetail>\n      <KVKNumber>00001768<\/KVKNumber>\n      <CompanyName>FLETCHER HOTEL EXPLOITATIES B.V.<\/CompanyName>\n      <ChamberNumber>00<\/ChamberNumber>\n      <FileNumber>001768<\/FileNumber>\n      <SubFileNumber>0000<\/SubFileNumber>\n      <Date>20060401<\/Date>\n      <DB_Number>414544226<\/DB_Number>\n      <ZipCode>7587 ND<\/ZipCode>\n      <HouseNumber>21<\/HouseNumber>\n      <Phone>0541551215<\/Phone>\n    <\/KVKDetail>\n    <KVKDetail>\n      <KVKNumber>00001768<\/KVKNumber>\n      <CompanyName>FLETCHER HOTEL EXPLOITATIES B.V.<\/CompanyName>\n      <ChamberNumber>00<\/ChamberNumber>\n      <FileNumber>001768<\/FileNumber>\n      <SubFileNumber>0000<\/SubFileNumber>\n      <Date>20010403<\/Date>\n      <DB_Number>415695043<\/DB_Number>\n      <ZipCode>2671 SB<\/ZipCode>\n      <HouseNumber>20<\/HouseNumber>\n      <Phone>0174272625<\/Phone>\n    <\/KVKDetail>\n    <KVKDetail>\n      <KVKNumber>00001768<\/KVKNumber>\n      <CompanyName>FLETCHER HOTEL EXPLOITATIES B.V.<\/CompanyName>\n      <ChamberNumber>00<\/ChamberNumber>\n      <FileNumber>001768<\/FileNumber>\n      <SubFileNumber>0000<\/SubFileNumber>\n      <Date>19280501<\/Date>\n      <DB_Number>489037674<\/DB_Number>\n      <ZipCode>3231 BJ<\/ZipCode>\n      <HouseNumber>4<\/HouseNumber>\n      <Phone>0181413388<\/Phone>\n    <\/KVKDetail>\n    <KVKDetail>\n      <KVKNumber>00001768<\/KVKNumber>\n      <CompanyName>FLETCHER HOTEL EXPLOITATIES B.V.<\/CompanyName>\n      <ChamberNumber>00<\/ChamberNumber>\n      <FileNumber>001768<\/FileNumber>\n      <SubFileNumber>0000<\/SubFileNumber>\n      <Date>19980709<\/Date>\n      <DB_Number>489324193<\/DB_Number>\n      <ZipCode>4328 JC<\/ZipCode>\n      <HouseNumber>1<\/HouseNumber>\n      <Phone>0111887766<\/Phone>\n    <\/KVKDetail>\n    <KVKDetail>\n      <KVKNumber>00001768<\/KVKNumber>\n      <CompanyName>PLUIM &amp; DE HAAS B.V.<\/CompanyName>\n      <ChamberNumber>00<\/ChamberNumber>\n      <FileNumber>001768<\/FileNumber>\n      <SubFileNumber>0000<\/SubFileNumber>\n      <Date>20030601<\/Date>\n      <DB_Number>489320833<\/DB_Number>\n      <ZipCode>6716 RH<\/ZipCode>\n      <HouseNumber>34<\/HouseNumber>\n      <Phone>0263335771<\/Phone>\n    <\/KVKDetail>\n    <KVKDetail>\n      <KVKNumber>00001768<\/KVKNumber>\n      <CompanyName>COOP PRODUCTIEBEDRIJVEN B.V.<\/CompanyName>\n      <ChamberNumber>00<\/ChamberNumber>\n      <FileNumber>001768<\/FileNumber>\n      <SubFileNumber>0000<\/SubFileNumber>\n      <Date>19100101<\/Date>\n      <DB_Number>489382604<\/DB_Number>\n      <ZipCode>7418 CH<\/ZipCode>\n      <HouseNumber>13<\/HouseNumber>\n      <Phone>0570663300<\/Phone>\n    <\/KVKDetail>\n    <KVKDetail>\n      <KVKNumber>00001768<\/KVKNumber>\n      <CompanyName>UITGEVERIJ NOVEMA B.V.<\/CompanyName>\n      <ChamberNumber>00<\/ChamberNumber>\n      <FileNumber>001768<\/FileNumber>\n      <SubFileNumber>0000<\/SubFileNumber>\n      <Date>20020601<\/Date>\n      <DB_Number>386147503<\/DB_Number>\n      <ZipCode>6546 BB<\/ZipCode>\n      <HouseNumber>1041<\/HouseNumber>\n      <Phone>0243552292<\/Phone>\n    <\/KVKDetail>\n    <KVKDetail>\n      <KVKNumber>00001768<\/KVKNumber>\n      <CompanyName>UITGEVERIJ NOVEMA B.V.<\/CompanyName>\n      <ChamberNumber>00<\/ChamberNumber>\n      <FileNumber>001768<\/FileNumber>\n      <SubFileNumber>0000<\/SubFileNumber>\n      <Date>20020601<\/Date>\n      <DB_Number>386147511<\/DB_Number>\n      <ZipCode>1601 CL<\/ZipCode>\n      <HouseNumber>13<\/HouseNumber>\n      <Phone>0228321253<\/Phone>\n    <\/KVKDetail>\n    <KVKDetail>\n      <KVKNumber>00001768<\/KVKNumber>\n      <CompanyName>UITGEVERIJ NOVEMA B.V.<\/CompanyName>\n      <ChamberNumber>00<\/ChamberNumber>\n      <FileNumber>001768<\/FileNumber>\n      <SubFileNumber>0000<\/SubFileNumber>\n      <Date>20041201<\/Date>\n      <DB_Number>386147529<\/DB_Number>\n      <ZipCode>9206 AA<\/ZipCode>\n      <HouseNumber>21<\/HouseNumber>\n      <Phone>0512366326<\/Phone>\n    <\/KVKDetail>\n    <KVKDetail>\n      <KVKNumber>00001768<\/KVKNumber>\n      <CompanyName>UITGEVERIJ NOVEMA B.V.<\/CompanyName>\n      <ChamberNumber>00<\/ChamberNumber>\n      <FileNumber>001768<\/FileNumber>\n      <SubFileNumber>0000<\/SubFileNumber>\n      <Date>20050101<\/Date>\n      <DB_Number>386147537<\/DB_Number>\n      <ZipCode>5688 EW<\/ZipCode>\n      <HouseNumber>38<\/HouseNumber>\n      <Phone>0499313113<\/Phone>\n    <\/KVKDetail>\n    <KVKDetail>\n      <KVKNumber>00001768<\/KVKNumber>\n      <CompanyName>UITGEVERIJ NOVEMA B.V.<\/CompanyName>\n      <ChamberNumber>00<\/ChamberNumber>\n      <FileNumber>001768<\/FileNumber>\n      <SubFileNumber>0000<\/SubFileNumber>\n      <Date>19111111<\/Date>\n      <DB_Number>386147545<\/DB_Number>\n      <ZipCode>9231 DB<\/ZipCode>\n      <HouseNumber>6<\/HouseNumber>\n      <Phone>0512326502<\/Phone>\n    <\/KVKDetail>\n    <KVKDetail>\n      <KVKNumber>00001768<\/KVKNumber>\n      <CompanyName>G\u00c9VIERDALES B.V.<\/CompanyName>\n      <ChamberNumber>00<\/ChamberNumber>\n      <FileNumber>001768<\/FileNumber>\n      <SubFileNumber>0000<\/SubFileNumber>\n      <Date>19960301<\/Date>\n      <DB_Number>386165666<\/DB_Number>\n      <ZipCode>3981 AK<\/ZipCode>\n      <HouseNumber>8<\/HouseNumber>\n      <Phone>0306571299<\/Phone>\n    <\/KVKDetail>\n    <KVKDetail>\n      <KVKNumber>00001768<\/KVKNumber>\n      <CompanyName>FOM MANAGEMENT SOLUTIONS B.V.<\/CompanyName>\n      <ChamberNumber>00<\/ChamberNumber>\n      <FileNumber>001768<\/FileNumber>\n      <SubFileNumber>0000<\/SubFileNumber>\n      <Date>19111111<\/Date>\n      <DB_Number>386235266<\/DB_Number>\n      <ZipCode>8921 AH<\/ZipCode>\n      <HouseNumber>87<\/HouseNumber>\n      <Phone>0582801591<\/Phone>\n    <\/KVKDetail>\n    <KVKDetail>\n      <KVKNumber>00001768<\/KVKNumber>\n      <CompanyName>FLETCHER HOTEL EXPLOITATIES B.V.<\/CompanyName>\n      <ChamberNumber>00<\/ChamberNumber>\n      <FileNumber>001768<\/FileNumber>\n      <SubFileNumber>0000<\/SubFileNumber>\n      <Date>20051001<\/Date>\n      <DB_Number>386261932<\/DB_Number>\n      <ZipCode>6576 AS<\/ZipCode>\n      <HouseNumber>32<\/HouseNumber>\n      <Phone>0246638213<\/Phone>\n    <\/KVKDetail>\n    <KVKDetail>\n      <KVKNumber>00001768<\/KVKNumber>\n      <CompanyName>PLUIM &amp; DE HAAS B.V.<\/CompanyName>\n      <ChamberNumber>00<\/ChamberNumber>\n      <FileNumber>001768<\/FileNumber>\n      <SubFileNumber>0000<\/SubFileNumber>\n      <Date>19190501<\/Date>\n      <DB_Number>386342786<\/DB_Number>\n      <ZipCode>6862 DP<\/ZipCode>\n      <HouseNumber>2<\/HouseNumber>\n      <Phone>0263332057<\/Phone>\n    <\/KVKDetail>\n    <KVKDetail>\n      <KVKNumber>00001768<\/KVKNumber>\n      <CompanyName>FLETCHER HOTEL EXPLOITATIES B.V.<\/CompanyName>\n      <ChamberNumber>00<\/ChamberNumber>\n      <FileNumber>001768<\/FileNumber>\n      <SubFileNumber>0000<\/SubFileNumber>\n      <Date>18800101<\/Date>\n      <DB_Number>402482371<\/DB_Number>\n      <ZipCode>4331 HV<\/ZipCode>\n      <HouseNumber>1<\/HouseNumber>\n      <Phone>0118636051<\/Phone>\n    <\/KVKDetail>\n    <KVKDetail>\n      <KVKNumber>00001768<\/KVKNumber>\n      <CompanyName>FLETCHER HOTEL EXPLOITATIES B.V.<\/CompanyName>\n      <ChamberNumber>00<\/ChamberNumber>\n      <FileNumber>001768<\/FileNumber>\n      <SubFileNumber>0000<\/SubFileNumber>\n      <Date>19380601<\/Date>\n      <DB_Number>402482389<\/DB_Number>\n      <ZipCode>1791 EV<\/ZipCode>\n      <HouseNumber>94<\/HouseNumber>\n      <Phone>0222313301<\/Phone>\n    <\/KVKDetail>\n    <KVKDetail>\n      <KVKNumber>00001768<\/KVKNumber>\n      <CompanyName>AANNEMINGSBEDRIJF MECKLENFELD B.V.<\/CompanyName>\n      <ChamberNumber>00<\/ChamberNumber>\n      <FileNumber>001768<\/FileNumber>\n      <SubFileNumber>0000<\/SubFileNumber>\n      <Date>19860925<\/Date>\n      <DB_Number>407282875<\/DB_Number>\n      <ZipCode>7776 AK<\/ZipCode>\n      <HouseNumber>60<\/HouseNumber>\n      <Phone>0523681431<\/Phone>\n    <\/KVKDetail>\n    <KVKDetail>\n      <KVKNumber>00001768<\/KVKNumber>\n      <CompanyName>G\u00c9VIERDALES B.V.<\/CompanyName>\n      <ChamberNumber>00<\/ChamberNumber>\n      <FileNumber>001768<\/FileNumber>\n      <SubFileNumber>0000<\/SubFileNumber>\n      <Date>19970101<\/Date>\n      <DB_Number>408777766<\/DB_Number>\n      <ZipCode>4538 AE<\/ZipCode>\n      <HouseNumber>32<\/HouseNumber>\n      <Phone>0115680665<\/Phone>\n    <\/KVKDetail>\n    <KVKDetail>\n      <KVKNumber>00001768<\/KVKNumber>\n      <CompanyName>G\u00c9VIERDALES B.V.<\/CompanyName>\n      <ChamberNumber>00<\/ChamberNumber>\n      <FileNumber>001768<\/FileNumber>\n      <SubFileNumber>0000<\/SubFileNumber>\n      <Date>20020301<\/Date>\n      <DB_Number>408857402<\/DB_Number>\n      <ZipCode>4389 WB<\/ZipCode>\n      <HouseNumber>9<\/HouseNumber>\n      <Phone>0118491344<\/Phone>\n    <\/KVKDetail>\n    <KVKDetail>\n      <KVKNumber>00001768<\/KVKNumber>\n      <CompanyName>FLETCHER HOTEL EXPLOITATIES B.V.<\/CompanyName>\n      <ChamberNumber>00<\/ChamberNumber>\n      <FileNumber>001768<\/FileNumber>\n      <SubFileNumber>0000<\/SubFileNumber>\n      <Date>19480301<\/Date>\n      <DB_Number>409203747<\/DB_Number>\n      <ZipCode>1931 EW<\/ZipCode>\n      <HouseNumber>2<\/HouseNumber>\n      <Phone>0725061368<\/Phone>\n    <\/KVKDetail>\n    <KVKDetail>\n      <KVKNumber>00001768<\/KVKNumber>\n      <CompanyName>BLOKKER B.V.<\/CompanyName>\n      <ChamberNumber>00<\/ChamberNumber>\n      <FileNumber>001768<\/FileNumber>\n      <SubFileNumber>0000<\/SubFileNumber>\n      <Date>19111111<\/Date>\n      <DB_Number>418506549<\/DB_Number>\n      <ZipCode>6411 AX<\/ZipCode>\n      <HouseNumber>5<\/HouseNumber>\n      <Phone>0455716944<\/Phone>\n    <\/KVKDetail>\n    <KVKDetail>\n      <KVKNumber>00001768<\/KVKNumber>\n      <CompanyName>BLOKKER B.V.<\/CompanyName>\n      <ChamberNumber>00<\/ChamberNumber>\n      <FileNumber>001768<\/FileNumber>\n      <SubFileNumber>0000<\/SubFileNumber>\n      <Date>19870212<\/Date>\n      <DB_Number>418506564<\/DB_Number>\n      <ZipCode>6413 EV<\/ZipCode>\n      <HouseNumber>16<\/HouseNumber>\n      <Phone>0455630209<\/Phone>\n    <\/KVKDetail>\n    <KVKDetail>\n      <KVKNumber>00001768<\/KVKNumber>\n      <CompanyName>FLETCHER HOTEL EXPLOITATIES B.V.<\/CompanyName>\n      <ChamberNumber>00<\/ChamberNumber>\n      <FileNumber>001768<\/FileNumber>\n      <SubFileNumber>0000<\/SubFileNumber>\n      <Date>19781127<\/Date>\n      <DB_Number>414428610<\/DB_Number>\n      <ZipCode>1949 EC<\/ZipCode>\n      <HouseNumber>59<\/HouseNumber>\n      <Phone>0251376161<\/Phone>\n    <\/KVKDetail>\n    <KVKDetail>\n      <KVKNumber>00001768<\/KVKNumber>\n      <CompanyName>FLETCHER HOTEL EXPLOITATIES B.V.<\/CompanyName>\n      <ChamberNumber>00<\/ChamberNumber>\n      <FileNumber>001768<\/FileNumber>\n      <SubFileNumber>0000<\/SubFileNumber>\n      <Date>19920526<\/Date>\n      <DB_Number>415137459<\/DB_Number>\n      <ZipCode>5944 EZ<\/ZipCode>\n      <HouseNumber>1<\/HouseNumber>\n      <Phone>0774736666<\/Phone>\n    <\/KVKDetail>\n    <KVKDetail>\n      <KVKNumber>00001768<\/KVKNumber>\n      <CompanyName>FLETCHER HOTEL EXPLOITATIES B.V.<\/CompanyName>\n      <ChamberNumber>00<\/ChamberNumber>\n      <FileNumber>001768<\/FileNumber>\n      <SubFileNumber>0000<\/SubFileNumber>\n      <Date>19861201<\/Date>\n      <DB_Number>415514418<\/DB_Number>\n      <ZipCode>9301 NR<\/ZipCode>\n      <HouseNumber>1<\/HouseNumber>\n      <Phone>0505013850<\/Phone>\n    <\/KVKDetail>\n    <KVKDetail>\n      <KVKNumber>00001768<\/KVKNumber>\n      <CompanyName>BLOKKER B.V.<\/CompanyName>\n      <ChamberNumber>00<\/ChamberNumber>\n      <FileNumber>001768<\/FileNumber>\n      <SubFileNumber>0000<\/SubFileNumber>\n      <Date>19850831<\/Date>\n      <DB_Number>416788024<\/DB_Number>\n      <ZipCode>8431 ET<\/ZipCode>\n      <HouseNumber>17<\/HouseNumber>\n      <Phone>0516523494<\/Phone>\n    <\/KVKDetail>\n    <KVKDetail>\n      <KVKNumber>00001768<\/KVKNumber>\n      <CompanyName>FLETCHER HOTEL EXPLOITATIES B.V.<\/CompanyName>\n      <ChamberNumber>00<\/ChamberNumber>\n      <FileNumber>001768<\/FileNumber>\n      <SubFileNumber>0000<\/SubFileNumber>\n      <Date>19880815<\/Date>\n      <DB_Number>489396251<\/DB_Number>\n      <ZipCode>6961 LX<\/ZipCode>\n      <HouseNumber>1<\/HouseNumber>\n      <Phone>0313659135<\/Phone>\n    <\/KVKDetail>\n    <KVKDetail>\n      <KVKNumber>00001768<\/KVKNumber>\n      <CompanyName>FLETCHER HOTEL EXPLOITATIES B.V.<\/CompanyName>\n      <ChamberNumber>00<\/ChamberNumber>\n      <FileNumber>001768<\/FileNumber>\n      <SubFileNumber>0000<\/SubFileNumber>\n      <Date>19981222<\/Date>\n      <DB_Number>489396252<\/DB_Number>\n      <ZipCode>5062 SB<\/ZipCode>\n      <HouseNumber>143<\/HouseNumber>\n      <Phone>0347750443<\/Phone>\n    <\/KVKDetail>\n    <KVKDetail>\n      <KVKNumber>00001768<\/KVKNumber>\n      <CompanyName>FLETCHER HOTEL EXPLOITATIES B.V.<\/CompanyName>\n      <ChamberNumber>00<\/ChamberNumber>\n      <FileNumber>001768<\/FileNumber>\n      <SubFileNumber>0000<\/SubFileNumber>\n      <Date>19811016<\/Date>\n      <DB_Number>489811974<\/DB_Number>\n      <ZipCode>6468 PA<\/ZipCode>\n      <HouseNumber>4<\/HouseNumber>\n      <Phone>0347750454<\/Phone>\n    <\/KVKDetail>\n    <KVKDetail>\n      <KVKNumber>00001768<\/KVKNumber>\n      <CompanyName>FLETCHER HOTEL EXPLOITATIES B.V.<\/CompanyName>\n      <ChamberNumber>00<\/ChamberNumber>\n      <FileNumber>001768<\/FileNumber>\n      <SubFileNumber>0000<\/SubFileNumber>\n      <Date>20051230<\/Date>\n      <DB_Number>386617307<\/DB_Number>\n      <ZipCode>9161 CZ<\/ZipCode>\n      <HouseNumber>1<\/HouseNumber>\n      <Phone>0519554646<\/Phone>\n    <\/KVKDetail>\n    <KVKDetail>\n      <KVKNumber>00001768<\/KVKNumber>\n      <CompanyName>BEVELA B.V.<\/CompanyName>\n      <ChamberNumber>00<\/ChamberNumber>\n      <FileNumber>001768<\/FileNumber>\n      <SubFileNumber>0000<\/SubFileNumber>\n      <Date>20010401<\/Date>\n      <DB_Number>406252663<\/DB_Number>\n      <ZipCode>3824 MN<\/ZipCode>\n      <HouseNumber>23<\/HouseNumber>\n      <Phone>0334567100<\/Phone>\n    <\/KVKDetail>\n    <KVKDetail>\n      <KVKNumber>00001768<\/KVKNumber>\n      <CompanyName>TECHNISCHE HANDELSONDERNEMING 'GEVIER' B.V.<\/CompanyName>\n      <ChamberNumber>00<\/ChamberNumber>\n      <FileNumber>001768<\/FileNumber>\n      <SubFileNumber>0000<\/SubFileNumber>\n      <Date>19111111<\/Date>\n      <DB_Number>408453780<\/DB_Number>\n      <ZipCode>3084 CB<\/ZipCode>\n      <HouseNumber>160<\/HouseNumber>\n      <Phone>0104109010<\/Phone>\n    <\/KVKDetail>\n    <KVKDetail>\n      <KVKNumber>00001768<\/KVKNumber>\n      <CompanyName>FIN TRADING B.V.<\/CompanyName>\n      <ChamberNumber>00<\/ChamberNumber>\n      <FileNumber>001768<\/FileNumber>\n      <SubFileNumber>0000<\/SubFileNumber>\n      <Date>19940201<\/Date>\n      <DB_Number>408383516<\/DB_Number>\n      <ZipCode>1012 JM<\/ZipCode>\n      <HouseNumber>22<\/HouseNumber>\n      <Phone>0206249771<\/Phone>\n    <\/KVKDetail>\n    <KVKDetail>\n      <KVKNumber>00001768<\/KVKNumber>\n      <CompanyName>FLETCHER HOTEL EXPLOITATIES B.V.<\/CompanyName>\n      <ChamberNumber>00<\/ChamberNumber>\n      <FileNumber>001768<\/FileNumber>\n      <SubFileNumber>0000<\/SubFileNumber>\n      <Date>19980329<\/Date>\n      <DB_Number>409484024<\/DB_Number>\n      <ZipCode>5251 EC<\/ZipCode>\n      <HouseNumber>21<\/HouseNumber>\n      <Phone>0735119131<\/Phone>\n    <\/KVKDetail>\n    <KVKDetail>\n      <KVKNumber>00001768<\/KVKNumber>\n      <CompanyName>FLETCHER HOTEL EXPLOITATIES B.V.<\/CompanyName>\n      <ChamberNumber>00<\/ChamberNumber>\n      <FileNumber>001768<\/FileNumber>\n      <SubFileNumber>0000<\/SubFileNumber>\n      <Date>20030115<\/Date>\n      <DB_Number>409484032<\/DB_Number>\n      <ZipCode>6017 AR<\/ZipCode>\n      <HouseNumber>2<\/HouseNumber>\n      <Phone>0475562341<\/Phone>\n    <\/KVKDetail>\n    <KVKDetail>\n      <KVKNumber>00001768<\/KVKNumber>\n      <CompanyName>BLOKKER B.V.<\/CompanyName>\n      <ChamberNumber>00<\/ChamberNumber>\n      <FileNumber>001768<\/FileNumber>\n      <SubFileNumber>0000<\/SubFileNumber>\n      <Date>19851106<\/Date>\n      <DB_Number>411121858<\/DB_Number>\n      <ZipCode>1035 EG<\/ZipCode>\n      <HouseNumber>29<\/HouseNumber>\n      <Phone>0204930446<\/Phone>\n    <\/KVKDetail>\n    <KVKDetail>\n      <KVKNumber>00001768<\/KVKNumber>\n      <CompanyName>BLOKKER B.V.<\/CompanyName>\n      <ChamberNumber>00<\/ChamberNumber>\n      <FileNumber>001768<\/FileNumber>\n      <SubFileNumber>0000<\/SubFileNumber>\n      <Date>19340101<\/Date>\n      <DB_Number>411121866<\/DB_Number>\n      <ZipCode>1077 JM<\/ZipCode>\n      <HouseNumber>76<\/HouseNumber>\n      <Phone>0204714068<\/Phone>\n    <\/KVKDetail>\n    <KVKDetail>\n      <KVKNumber>00001768<\/KVKNumber>\n      <CompanyName>BLOKKER B.V.<\/CompanyName>\n      <ChamberNumber>00<\/ChamberNumber>\n      <FileNumber>001768<\/FileNumber>\n      <SubFileNumber>0000<\/SubFileNumber>\n      <Date>19111111<\/Date>\n      <DB_Number>411121874<\/DB_Number>\n      <ZipCode>1012 LJ<\/ZipCode>\n      <HouseNumber>28<\/HouseNumber>\n      <Phone>0206249801<\/Phone>\n    <\/KVKDetail>\n    <KVKDetail>\n      <KVKNumber>00001768<\/KVKNumber>\n      <CompanyName>BLOKKER B.V.<\/CompanyName>\n      <ChamberNumber>00<\/ChamberNumber>\n      <FileNumber>001768<\/FileNumber>\n      <SubFileNumber>0000<\/SubFileNumber>\n      <Date>19871007<\/Date>\n      <DB_Number>411361108<\/DB_Number>\n      <ZipCode>1102 MA<\/ZipCode>\n      <HouseNumber>719<\/HouseNumber>\n      <Phone>0204530458<\/Phone>\n    <\/KVKDetail>\n    <KVKDetail>\n      <KVKNumber>00001768<\/KVKNumber>\n      <CompanyName>BLOKKER B.V.<\/CompanyName>\n      <ChamberNumber>00<\/ChamberNumber>\n      <FileNumber>001768<\/FileNumber>\n      <SubFileNumber>0000<\/SubFileNumber>\n      <Date>19871022<\/Date>\n      <DB_Number>411361116<\/DB_Number>\n      <ZipCode>1422 DL<\/ZipCode>\n      <HouseNumber>77<\/HouseNumber>\n      <Phone>0297521451<\/Phone>\n    <\/KVKDetail>\n    <KVKDetail>\n      <KVKNumber>00001768<\/KVKNumber>\n      <CompanyName>BLOKKER B.V.<\/CompanyName>\n      <ChamberNumber>00<\/ChamberNumber>\n      <FileNumber>001768<\/FileNumber>\n      <SubFileNumber>0000<\/SubFileNumber>\n      <Date>19880428<\/Date>\n      <DB_Number>411875578<\/DB_Number>\n      <ZipCode>1053 KP<\/ZipCode>\n      <HouseNumber>169<\/HouseNumber>\n      <Phone>0206182384<\/Phone>\n    <\/KVKDetail>\n    <KVKDetail>\n      <KVKNumber>00001768<\/KVKNumber>\n      <CompanyName>BLOKKER B.V.<\/CompanyName>\n      <ChamberNumber>00<\/ChamberNumber>\n      <FileNumber>001768<\/FileNumber>\n      <SubFileNumber>0000<\/SubFileNumber>\n      <Date>19840524<\/Date>\n      <DB_Number>411946445<\/DB_Number>\n      <ZipCode>1334 BW<\/ZipCode>\n      <HouseNumber>74<\/HouseNumber>\n      <Phone>0365328259<\/Phone>\n    <\/KVKDetail>\n    <KVKDetail>\n      <KVKNumber>00001768<\/KVKNumber>\n      <CompanyName>BLOKKER B.V.<\/CompanyName>\n      <ChamberNumber>00<\/ChamberNumber>\n      <FileNumber>001768<\/FileNumber>\n      <SubFileNumber>0000<\/SubFileNumber>\n      <Date>19820922<\/Date>\n      <DB_Number>413283136<\/DB_Number>\n      <ZipCode>8224 JA<\/ZipCode>\n      <HouseNumber>25<\/HouseNumber>\n      <Phone>0320247943<\/Phone>\n    <\/KVKDetail>\n    <KVKDetail>\n      <KVKNumber>00001768<\/KVKNumber>\n      <CompanyName>FLETCHER HOTEL EXPLOITATIES B.V.<\/CompanyName>\n      <ChamberNumber>00<\/ChamberNumber>\n      <FileNumber>001768<\/FileNumber>\n      <SubFileNumber>0000<\/SubFileNumber>\n      <Date>19891001<\/Date>\n      <DB_Number>413691515<\/DB_Number>\n      <ZipCode>6255 AT<\/ZipCode>\n      <HouseNumber>17<\/HouseNumber>\n      <Phone>0434571338<\/Phone>\n    <\/KVKDetail>\n    <KVKDetail>\n      <KVKNumber>00001768<\/KVKNumber>\n      <CompanyName>FLETCHER HOTEL EXPLOITATIES B.V.<\/CompanyName>\n      <ChamberNumber>00<\/ChamberNumber>\n      <FileNumber>001768<\/FileNumber>\n      <SubFileNumber>0000<\/SubFileNumber>\n      <Date>20050121<\/Date>\n      <DB_Number>413691523<\/DB_Number>\n      <ZipCode>8076 PD<\/ZipCode>\n      <HouseNumber>70<\/HouseNumber>\n      <Phone>0577411241<\/Phone>\n    <\/KVKDetail>\n    <KVKDetail>\n      <KVKNumber>00001768<\/KVKNumber>\n      <CompanyName>ADMINISTRATIEKANTOREN VAN DE MORTEL &amp; PARTNERS B.V.<\/CompanyName>\n      <ChamberNumber>00<\/ChamberNumber>\n      <FileNumber>001768<\/FileNumber>\n      <SubFileNumber>0000<\/SubFileNumber>\n      <Date>19900115<\/Date>\n      <DB_Number>414213780<\/DB_Number>\n      <ZipCode>5864 BA<\/ZipCode>\n      <HouseNumber>13<\/HouseNumber>\n      <Phone>0478692197<\/Phone>\n    <\/KVKDetail>\n    <KVKDetail>\n      <KVKNumber>00001768<\/KVKNumber>\n      <CompanyName>FLETCHER HOTEL EXPLOITATIES B.V.<\/CompanyName>\n      <ChamberNumber>00<\/ChamberNumber>\n      <FileNumber>001768<\/FileNumber>\n      <SubFileNumber>0000<\/SubFileNumber>\n      <Date>20001221<\/Date>\n      <DB_Number>414476502<\/DB_Number>\n      <ZipCode>2243 CX<\/ZipCode>\n      <HouseNumber>27<\/HouseNumber>\n      <Phone>0705119232<\/Phone>\n    <\/KVKDetail>\n    <KVKDetail>\n      <KVKNumber>00001768<\/KVKNumber>\n      <CompanyName>FLETCHER HOTEL EXPLOITATIES B.V.<\/CompanyName>\n      <ChamberNumber>00<\/ChamberNumber>\n      <FileNumber>001768<\/FileNumber>\n      <SubFileNumber>0000<\/SubFileNumber>\n      <Date>19610521<\/Date>\n      <DB_Number>414476510<\/DB_Number>\n      <ZipCode>2202 KD<\/ZipCode>\n      <HouseNumber>32<\/HouseNumber>\n      <Phone>0713620340<\/Phone>\n    <\/KVKDetail>\n    <KVKDetail>\n      <KVKNumber>00001768<\/KVKNumber>\n      <CompanyName>BLOKKER B.V.<\/CompanyName>\n      <ChamberNumber>00<\/ChamberNumber>\n      <FileNumber>001768<\/FileNumber>\n      <SubFileNumber>0000<\/SubFileNumber>\n      <Date>19910516<\/Date>\n      <DB_Number>414956961<\/DB_Number>\n      <ZipCode>1093 BX<\/ZipCode>\n      <HouseNumber>82<\/HouseNumber>\n      <Phone>0206631066<\/Phone>\n    <\/KVKDetail>\n    <KVKDetail>\n      <KVKNumber>00001768<\/KVKNumber>\n      <CompanyName>BLOKKER B.V.<\/CompanyName>\n      <ChamberNumber>00<\/ChamberNumber>\n      <FileNumber>001768<\/FileNumber>\n      <SubFileNumber>0000<\/SubFileNumber>\n      <Date>19910116<\/Date>\n      <DB_Number>414879643<\/DB_Number>\n      <ZipCode>1082 LV<\/ZipCode>\n      <HouseNumber>121<\/HouseNumber>\n      <Phone>0205683568<\/Phone>\n    <\/KVKDetail>\n    <KVKDetail>\n      <KVKNumber>00001768<\/KVKNumber>\n      <CompanyName>BLOKKER B.V.<\/CompanyName>\n      <ChamberNumber>00<\/ChamberNumber>\n      <FileNumber>001768<\/FileNumber>\n      <SubFileNumber>0000<\/SubFileNumber>\n      <Date>19860305<\/Date>\n      <DB_Number>416797694<\/DB_Number>\n      <ZipCode>6942 BD<\/ZipCode>\n      <HouseNumber>8<\/HouseNumber>\n      <Phone>0316294238<\/Phone>\n    <\/KVKDetail>\n    <KVKDetail>\n      <KVKNumber>00001768<\/KVKNumber>\n      <CompanyName>BLOKKER B.V.<\/CompanyName>\n      <ChamberNumber>00<\/ChamberNumber>\n      <FileNumber>001768<\/FileNumber>\n      <SubFileNumber>0000<\/SubFileNumber>\n      <Date>19870205<\/Date>\n      <DB_Number>416797702<\/DB_Number>\n      <ZipCode>6714 DP<\/ZipCode>\n      <HouseNumber>105<\/HouseNumber>\n      <Phone>0318692539<\/Phone>\n    <\/KVKDetail>\n    <KVKDetail>\n      <KVKNumber>00001768<\/KVKNumber>\n      <CompanyName>BLOKKER B.V.<\/CompanyName>\n      <ChamberNumber>00<\/ChamberNumber>\n      <FileNumber>001768<\/FileNumber>\n      <SubFileNumber>0000<\/SubFileNumber>\n      <Date>19810702<\/Date>\n      <DB_Number>417066412<\/DB_Number>\n      <ZipCode>3851 NC<\/ZipCode>\n      <HouseNumber>99<\/HouseNumber>\n      <Phone>0341554221<\/Phone>\n    <\/KVKDetail>\n    <KVKDetail>\n      <KVKNumber>00001768<\/KVKNumber>\n      <CompanyName>BLOKKER B.V.<\/CompanyName>\n      <ChamberNumber>00<\/ChamberNumber>\n      <FileNumber>001768<\/FileNumber>\n      <SubFileNumber>0000<\/SubFileNumber>\n      <Date>19830303<\/Date>\n      <DB_Number>417066420<\/DB_Number>\n      <ZipCode>8071 BZ<\/ZipCode>\n      <HouseNumber>50<\/HouseNumber>\n      <Phone>0341258162<\/Phone>\n    <\/KVKDetail>\n    <KVKDetail>\n      <KVKNumber>00001768<\/KVKNumber>\n      <CompanyName>BLOKKER B.V.<\/CompanyName>\n      <ChamberNumber>00<\/ChamberNumber>\n      <FileNumber>001768<\/FileNumber>\n      <SubFileNumber>0000<\/SubFileNumber>\n      <Date>19830317<\/Date>\n      <DB_Number>417066438<\/DB_Number>\n      <ZipCode>3841 CC<\/ZipCode>\n      <HouseNumber>12<\/HouseNumber>\n      <Phone>0341423112<\/Phone>\n    <\/KVKDetail>\n    <KVKDetail>\n      <KVKNumber>00001768<\/KVKNumber>\n      <CompanyName>BLOKKER B.V.<\/CompanyName>\n      <ChamberNumber>00<\/ChamberNumber>\n      <FileNumber>001768<\/FileNumber>\n      <SubFileNumber>0000<\/SubFileNumber>\n      <Date>19790701<\/Date>\n      <DB_Number>417070646<\/DB_Number>\n      <ZipCode>5141 HH<\/ZipCode>\n      <HouseNumber>27<\/HouseNumber>\n      <Phone>0416560136<\/Phone>\n    <\/KVKDetail>\n    <KVKDetail>\n      <KVKNumber>00001768<\/KVKNumber>\n      <CompanyName>BLOKKER B.V.<\/CompanyName>\n      <ChamberNumber>00<\/ChamberNumber>\n      <FileNumber>001768<\/FileNumber>\n      <SubFileNumber>0000<\/SubFileNumber>\n      <Date>19840302<\/Date>\n      <DB_Number>417070653<\/DB_Number>\n      <ZipCode>4941 DC<\/ZipCode>\n      <HouseNumber>3<\/HouseNumber>\n      <Phone>0162570347<\/Phone>\n    <\/KVKDetail>\n    <KVKDetail>\n      <KVKNumber>00001768<\/KVKNumber>\n      <CompanyName>BLOKKER B.V.<\/CompanyName>\n      <ChamberNumber>00<\/ChamberNumber>\n      <FileNumber>001768<\/FileNumber>\n      <SubFileNumber>0000<\/SubFileNumber>\n      <Date>19841018<\/Date>\n      <DB_Number>417028537<\/DB_Number>\n      <ZipCode>9671 PA<\/ZipCode>\n      <HouseNumber>27<\/HouseNumber>\n      <Phone>0597431368<\/Phone>\n    <\/KVKDetail>\n    <KVKDetail>\n      <KVKNumber>00001768<\/KVKNumber>\n      <CompanyName>VAN ZIELST GOED WONEN B.V.<\/CompanyName>\n      <ChamberNumber>00<\/ChamberNumber>\n      <FileNumber>001768<\/FileNumber>\n      <SubFileNumber>0000<\/SubFileNumber>\n      <Date>19111111<\/Date>\n      <DB_Number>417758547<\/DB_Number>\n      <ZipCode>3245 AC<\/ZipCode>\n      <HouseNumber>8<\/HouseNumber>\n      <Phone>0187486441<\/Phone>\n    <\/KVKDetail>\n    <KVKDetail>\n      <KVKNumber>00001768<\/KVKNumber>\n      <CompanyName>BLOKKER B.V.<\/CompanyName>\n      <ChamberNumber>00<\/ChamberNumber>\n      <FileNumber>001768<\/FileNumber>\n      <SubFileNumber>0000<\/SubFileNumber>\n      <Date>19820129<\/Date>\n      <DB_Number>418280574<\/DB_Number>\n      <ZipCode>3086 EW<\/ZipCode>\n      <HouseNumber>574<\/HouseNumber>\n      <Phone>0102937105<\/Phone>\n    <\/KVKDetail>\n    <KVKDetail>\n      <KVKNumber>00001768<\/KVKNumber>\n      <CompanyName>FLETCHER HOTEL EXPLOITATIES B.V.<\/CompanyName>\n      <ChamberNumber>00<\/ChamberNumber>\n      <FileNumber>001768<\/FileNumber>\n      <SubFileNumber>0000<\/SubFileNumber>\n      <Date>20021216<\/Date>\n      <DB_Number>489650632<\/DB_Number>\n      <ZipCode>4524 JE<\/ZipCode>\n      <HouseNumber>46<\/HouseNumber>\n      <Phone>0347375875<\/Phone>\n    <\/KVKDetail>\n    <KVKDetail>\n      <KVKNumber>00001768<\/KVKNumber>\n      <CompanyName>VAN EDE &amp; PARTNERS B.V.<\/CompanyName>\n      <ChamberNumber>00<\/ChamberNumber>\n      <FileNumber>001768<\/FileNumber>\n      <SubFileNumber>0000<\/SubFileNumber>\n      <Date>20060501<\/Date>\n      <DB_Number>489677293<\/DB_Number>\n      <ZipCode>9711 AP<\/ZipCode>\n      <HouseNumber>5<\/HouseNumber>\n      <Phone>0503123485<\/Phone>\n    <\/KVKDetail>\n  <\/ListOfKVKDetails>\n<\/GetKVKDetailsResponse>", 
            ""
        ]
    }
}
