{
	"ReferenceID": "5a436effa2176",
	"Status": {
		"StatusReasonCode": "ERR-0000",
		"StatusReason": "SUCCESS"
	},
	"Success": "true",
	"Customer": {
		"PartyIdentification": {
			"ID": "FN_002883721305"
		},
		"PartyLegalEntity": {
			"CompanyID": "677",
			"CompanyLegalForm": "HRA",
			"RegistrationAddress": {
				"CityName": "Berlin"
			}
		},
		"Contact": {
			"Name": "Frau BSS24_ONB_BIT_Bas_16 BSS24_ONB_BIT_Bas_16",
			"ElectronicMail": "huda@hpe.com"
		},
		"PostalAddresses": [{
			"ID": [],
			"AddressTypeCode": "L",
			"Postbox": [],
			"StreetName": "Am Seestern",
			"BuildingNumber": "132",
			"CityName": "D\u00fcsseldorf null",
			"PostalZone": "40547",
			"CountrySubentity": [],
			"District": [],
			"Country": {
				"Name": []
			}
		}, {
			"ID": [],
			"AddressTypeCode": "B",
			"Postbox": [],
			"StreetName": "Am Seestern",
			"BuildingNumber": "132",
			"CityName": "D\u00fcsseldorf",
			"PostalZone": "40547",
			"CountrySubentity": [],
			"District": [],
			"Country": {
				"Name": []
			}
		}, {
			"ID": [],
			"AddressTypeCode": "S",
			"Postbox": [],
			"StreetName": "Am Seestern",
			"BuildingNumber": "132",
			"CityName": "D\u00fcsseldorf",
			"PostalZone": "40547",
			"CountrySubentity": [],
			"District": [],
			"Country": {
				"Name": "DE"
			}
		}, {
			"ID": [],
			"AddressTypeCode": "D",
			"Postbox": [],
			"StreetName": "Am Seestern",
			"BuildingNumber": "132",
			"CityName": "D\u00fcsseldorf",
			"PostalZone": "40547",
			"CountrySubentity": [],
			"District": [],
			"Country": {
				"Name": []
			}
		}],
		"CustomerPassword": "KEIN KENNWORT",
		"CustomerLifeCycleStatus": [],
		"AccountCategory": "FN",
		"PartyType": "SOHO",
		"ParentAccountNumber": {
			"ID": "002883721305"
		},
		"ContactPhoneNumber": {
			"CountryCode": "49",
			"LocalAreaCode": "0211",
			"PhoneNumber": "59828938",
			"Type": "FIXED_PHONE"
		},
		"Role": {
			"Person": []
		},
		"Contract": {
			"Subscription": [{
				"ID": "000213101844",
				"ValidityPeriod": {
					"StartDate": "2017-11-15",
					"EndDate": "2019-11-14"
				},
				"Product": {
					"StandardItemIdentification": {
						"ID": "F0000000385039624"
					},
					"Category": "DSL",
					"Component": {
						"ComponentAdditionalData": [{
							"Code": "function@ID",
							"Value": "F0000000385039624",
							"AdditionalValue": "/functions/internet"
						}, {
							"Code": "function@refAccessID",
							"Value": "A0000000385039624",
							"AdditionalValue": "/functions/internet"
						}, {
							"Code": "processingType",
							"Value": "IGNORE",
							"AdditionalValue": "/functions/internet/processingType"
						}, {
							"Code": "ccbId",
							"Value": "0000000385039624",
							"AdditionalValue": "/functions/internet/ccbId/existing"
						}, {
							"Code": "contractNumber",
							"Value": "000213101844",
							"AdditionalValue": "/functions/internet/contractNumber/existing"
						}, {
							"Code": "productCommitmentNumber",
							"Value": "000065553496",
							"AdditionalValue": "/functions/internet/productCommitmentNumber/existing"
						}, {
							"Code": "contractStartDate",
							"Value": "2017-11-15",
							"AdditionalValue": "/functions/internet/contractStartDate/existing"
						}, {
							"Code": "productCode",
							"Value": "I1203",
							"AdditionalValue": "/functions/internet/adslInternetConfiguration/productCode/existing"
						}, {
							"Code": "productBillingName",
							"Value": "Vodafone-Internet",
							"AdditionalValue": "/functions/internet/adslInternetConfiguration/productBillingName/existing"
						}, {
							"Code": "productVersionCode",
							"Value": "1",
							"AdditionalValue": "/functions/internet/adslInternetConfiguration/productVersionCode/existing"
						}, {
							"Code": "mainAccessServiceCode",
							"Value": "I1213",
							"AdditionalValue": "/functions/internet/adslInternetConfiguration/mainAccessServiceCode/existing"
						}, {
							"Code": "pricingStructureCode",
							"Value": "IP070",
							"AdditionalValue": "/functions/internet/adslInternetConfiguration/pricingStructureCode/existing"
						}, {
							"Code": "pricingStructureBillingName",
							"Value": "Flat",
							"AdditionalValue": "/functions/internet/adslInternetConfiguration/pricingStructureBillingName/existing"
						}, {
							"Code": "boardSignName",
							"Value": "Vodafone",
							"AdditionalValue": "/functions/internet/adslInternetConfiguration/boardSignName/existing"
						}, {
							"Code": "boardSignDate",
							"Value": "2017-11-15",
							"AdditionalValue": "/functions/internet/adslInternetConfiguration/boardSignDate/existing"
						}, {
							"Code": "primaryCustSignName",
							"Value": "BSS24_ONB_BIT_Bas_16",
							"AdditionalValue": "/functions/internet/adslInternetConfiguration/primaryCustSignName/existing"
						}, {
							"Code": "primaryCustSignDate",
							"Value": "2017-10-31",
							"AdditionalValue": "/functions/internet/adslInternetConfiguration/primaryCustSignDate/existing"
						}, {
							"Code": "value",
							"Value": "24",
							"AdditionalValue": "/functions/internet/adslInternetConfiguration/minimumDurationPeriod/value/existing"
						}, {
							"Code": "unit",
							"Value": "MONTH",
							"AdditionalValue": "/functions/internet/adslInternetConfiguration/minimumDurationPeriod/unit/existing"
						}, {
							"Code": "startDate",
							"Value": "2017-11-15",
							"AdditionalValue": "/functions/internet/adslInternetConfiguration/minimumDurationPeriod/startDate/existing"
						}, {
							"Code": "value",
							"Value": "12",
							"AdditionalValue": "/functions/internet/adslInternetConfiguration/autoExtension/value/existing"
						}, {
							"Code": "unit",
							"Value": "MONTH",
							"AdditionalValue": "/functions/internet/adslInternetConfiguration/autoExtension/unit/existing"
						}, {
							"Code": "autoExtensionIndicator",
							"Value": "true",
							"AdditionalValue": "/functions/internet/adslInternetConfiguration/autoExtension/autoExtensionIndicator/existing"
						}, {
							"Code": "value",
							"Value": "3",
							"AdditionalValue": "/functions/internet/adslInternetConfiguration/noticePeriod/value/existing"
						}, {
							"Code": "unit",
							"Value": "MONTH",
							"AdditionalValue": "/functions/internet/adslInternetConfiguration/noticePeriod/unit/existing"
						}, {
							"Code": "contractExpirationDate",
							"Value": "2019-11-14",
							"AdditionalValue": "/functions/internet/adslInternetConfiguration/contractExpirationDate/existing"
						}, {
							"Code": "specialTerminationRight",
							"Value": "NONE",
							"AdditionalValue": "/functions/internet/adslInternetConfiguration/specialTerminationRight/existing"
						}, {
							"Code": "DSLBandwidth",
							"Value": "V018G",
							"AdditionalValue": "/functions/internet/adslInternetConfiguration/DSLBandwidth/existing"
						}, {
							"Code": "upstreamBandwidth",
							"Value": "Standard",
							"AdditionalValue": "/functions/internet/adslInternetConfiguration/upstreamBandwidth/existing"
						}, {
							"Code": "allowBandwidthDowngrade",
							"Value": "false",
							"AdditionalValue": "/functions/internet/adslInternetConfiguration/allowBandwidthDowngrade/existing"
						}, {
							"Code": "desiredBandwidth",
							"Value": "V018G",
							"AdditionalValue": "/functions/internet/adslInternetConfiguration/desiredBandwidth/existing"
						}, {
							"Code": "maxTechnicalBandwidth",
							"Value": "50000",
							"AdditionalValue": "/functions/internet/adslInternetConfiguration/maxTechnicalBandwidth/existing"
						}, {
							"Code": "discountType",
							"Value": "keine Kondition/Rabatt",
							"AdditionalValue": "/functions/internet/adslInternetConfiguration/discountType/existing"
						}, {
							"Code": "featureServiceCode",
							"Value": "V0017",
							"AdditionalValue": "/functions/internet/adslInternetConfiguration/featuresList/existing/featureService[@ID=V0017]/featureServiceCode"
						}, {
							"Code": "dialInAccountName",
							"Value": "ab9032178380",
							"AdditionalValue": "/functions/internet/adslInternetConfiguration/dialInAccountName/existing"
						}, {
							"Code": "disableInternetUsageIndicator",
							"Value": "false",
							"AdditionalValue": "/functions/internet/adslInternetConfiguration/disableInternetUsageIndicator/existing"
						}, {
							"Code": "ccbId",
							"Value": "0000000385039624",
							"AdditionalValue": "/accesses/ipBitstream/ccbId/existing"
						}, {
							"Code": "contactRoleRefIdList",
							"Value": [],
							"AdditionalValue": "/accesses/ipBitstream/contactRoleRefIdList"
						}, {
							"Code": "city",
							"Value": "D\u00fcsseldorf",
							"AdditionalValue": "/accesses/ipBitstream/ipBitstreamConfiguration/locationAddress/existing/city"
						}, {
							"Code": "postalCode",
							"Value": "40547",
							"AdditionalValue": "/accesses/ipBitstream/ipBitstreamConfiguration/locationAddress/existing/postalCode"
						}, {
							"Code": "street",
							"Value": "Am Seestern",
							"AdditionalValue": "/accesses/ipBitstream/ipBitstreamConfiguration/locationAddress/existing/street"
						}, {
							"Code": "streetNumber",
							"Value": "132",
							"AdditionalValue": "/accesses/ipBitstream/ipBitstreamConfiguration/locationAddress/existing/streetNumber"
						}, {
							"Code": "country",
							"Value": "DE",
							"AdditionalValue": "/accesses/ipBitstream/ipBitstreamConfiguration/locationAddress/existing/country"
						}, {
							"Code": "salesSegment",
							"Value": "GK",
							"AdditionalValue": "/accesses/ipBitstream/ipBitstreamConfiguration/salesSegment/existing"
						}, {
							"Code": "locationTAE",
							"Value": "keller",
							"AdditionalValue": "/accesses/ipBitstream/ipBitstreamConfiguration/locationTAE/existing"
						}, {
							"Code": "asb",
							"Value": "59",
							"AdditionalValue": "/accesses/ipBitstream/ipBitstreamConfiguration/asb/existing"
						}, {
							"Code": "carrier",
							"Value": "Arcor",
							"AdditionalValue": "/accesses/ipBitstream/ipBitstreamConfiguration/carrier/existing"
						}, {
							"Code": "oldAccess",
							"Value": "NEW",
							"AdditionalValue": "/accesses/ipBitstream/ipBitstreamConfiguration/oldAccess/existing"
						}, {
							"Code": "lineType",
							"Value": "CuDa",
							"AdditionalValue": "/accesses/ipBitstream/ipBitstreamConfiguration/lineType/existing"
						}, {
							"Code": "acsIndicator",
							"Value": "true",
							"AdditionalValue": "/accesses/ipBitstream/ipBitstreamConfiguration/acsIndicator/existing"
						}, {
							"Code": "iadPin",
							"Value": "4207731570",
							"AdditionalValue": "/accesses/ipBitstream/ipBitstreamConfiguration/iadPin/existing"
						}, {
							"Code": "ngabLineID",
							"Value": "DEU.DTAG.5081710400",
							"AdditionalValue": "/accesses/ipBitstream/ipBitstreamConfiguration/ngabLineID/existing"
						}, {
							"Code": "technicalServiceGroup",
							"Value": "OPM003715421",
							"AdditionalValue": "/accesses/ipBitstream/ipBitstreamConfiguration/technicalServiceGroup/existing"
						}, {
							"Code": "providerContractNumber",
							"Value": "547049895",
							"AdditionalValue": "/accesses/ipBitstream/ipBitstreamConfiguration/providerContractNumber/existing"
						}, {
							"Code": "providerCompletionDate",
							"Value": "2017-11-15",
							"AdditionalValue": "/accesses/ipBitstream/ipBitstreamConfiguration/providerCompletionDate/existing"
						}, {
							"Code": "accessTechnology",
							"Value": "VDSL",
							"AdditionalValue": "/accesses/ipBitstream/ipBitstreamConfiguration/accessTechnology/existing"
						}, {
							"Code": "customerCommunication",
							"Value": "Standardbriefe",
							"AdditionalValue": "/accesses/ipBitstream/ipBitstreamConfiguration/customerCommunication/existing"
						}]
					}
				},
				"Address": [{
					"ID": [],
					"AddressTypeCode": "L",
					"Postbox": [],
					"StreetName": "Am Seestern",
					"BuildingNumber": "132",
					"CityName": "D\u00fcsseldorf null",
					"PostalZone": "40547",
					"CountrySubentity": [],
					"District": [],
					"Country": {
						"Name": []
					}
				}, {
					"ID": [],
					"AddressTypeCode": "B",
					"Postbox": [],
					"StreetName": "Am Seestern",
					"BuildingNumber": "132",
					"CityName": "D\u00fcsseldorf",
					"PostalZone": "40547",
					"CountrySubentity": [],
					"District": [],
					"Country": {
						"Name": []
					}
				}, {
					"ID": [],
					"AddressTypeCode": "S",
					"Postbox": [],
					"StreetName": "Am Seestern",
					"BuildingNumber": "132",
					"CityName": "D\u00fcsseldorf",
					"PostalZone": "40547",
					"CountrySubentity": [],
					"District": [],
					"Country": {
						"Name": "DE"
					}
				}, {
					"ID": [],
					"AddressTypeCode": "D",
					"Postbox": [],
					"StreetName": "Am Seestern",
					"BuildingNumber": "132",
					"CityName": "D\u00fcsseldorf",
					"PostalZone": "40547",
					"CountrySubentity": [],
					"District": [],
					"Country": {
						"Name": []
					}
				}],
				"Contact": [{
					"SequenceID": {
						"ID": []
					},
					"Contact": {
						"ElectronicMail": []
					},
					"PartyType": "LegalContact",
					"DhlIdentification": [],
					"ParentAccountNumber": {
						"ID": "002883721305"
					},
					"ContactPhoneNumber": {
						"CountryCode": "49",
						"LocalAreaCode": "030",
						"PhoneNumber": "123456",
						"Type": "FIXED_PHONE"
					},
					"Role": {
						"Person": []
					}
				}, {
					"SequenceID": {
						"ID": []
					},
					"Contact": {
						"ElectronicMail": []
					},
					"PartyType": "BillingContact",
					"DhlIdentification": [],
					"ParentAccountNumber": {
						"ID": "002883721305"
					},
					"ContactPhoneNumber": {
						"CountryCode": "49",
						"LocalAreaCode": "030",
						"PhoneNumber": "123456",
						"Type": "FIXED_PHONE"
					},
					"Role": {
						"Person": []
					}
				}, {
					"SequenceID": {
						"ID": []
					},
					"Contact": {
						"ElectronicMail": []
					},
					"PartyType": "DeliveryContact",
					"DhlIdentification": [],
					"ParentAccountNumber": {
						"ID": "002883721305"
					},
					"Role": {
						"Person": {
							"FamilyName": "BSS24_ONB_BIT_Bas_16",
							"Salutation": "Firma"
						}
					}
				}],
				"InMinimumDurationPeriod": "Y"
			}, {
				"ID": "000213101845",
				"ValidityPeriod": {
					"StartDate": "2017-11-15",
					"EndDate": "2019-11-14"
				},
				"Product": {
					"StandardItemIdentification": {
						"ID": "F0000000385039625"
					},
					"Category": "DSL",
					"Component": {
						"ComponentAdditionalData": [{
							"Code": "function@ID",
							"Value": "F0000000385039625",
							"AdditionalValue": "/functions/voice"
						}, {
							"Code": "processingType",
							"Value": "IGNORE",
							"AdditionalValue": "/functions/voice/processingType"
						}, {
							"Code": "ccbId",
							"Value": "0000000385039625",
							"AdditionalValue": "/functions/voice/ccbId/existing"
						}, {
							"Code": "contractNumber",
							"Value": "000213101845",
							"AdditionalValue": "/functions/voice/contractNumber/existing"
						}, {
							"Code": "productCommitmentNumber",
							"Value": "000065553497",
							"AdditionalValue": "/functions/voice/productCommitmentNumber/existing"
						}, {
							"Code": "contractStartDate",
							"Value": "2017-11-15",
							"AdditionalValue": "/functions/voice/contractStartDate/existing"
						}, {
							"Code": "productCode",
							"Value": "VI203",
							"AdditionalValue": "/functions/voice/voiceBasisConfiguration/productCode/existing"
						}, {
							"Code": "productBillingName",
							"Value": "Vodafone-Sprache",
							"AdditionalValue": "/functions/voice/voiceBasisConfiguration/productBillingName/existing"
						}, {
							"Code": "productVersionCode",
							"Value": "1.0",
							"AdditionalValue": "/functions/voice/voiceBasisConfiguration/productVersionCode/existing"
						}, {
							"Code": "mainAccessServiceCode",
							"Value": "VI009",
							"AdditionalValue": "/functions/voice/voiceBasisConfiguration/mainAccessServiceCode/existing"
						}, {
							"Code": "pricingStructureCode",
							"Value": "VP070",
							"AdditionalValue": "/functions/voice/voiceBasisConfiguration/pricingStructureCode/existing"
						}, {
							"Code": "pricingStructureBillingName",
							"Value": "Festnetz-Flat",
							"AdditionalValue": "/functions/voice/voiceBasisConfiguration/pricingStructureBillingName/existing"
						}, {
							"Code": "boardSignName",
							"Value": "Vodafone",
							"AdditionalValue": "/functions/voice/voiceBasisConfiguration/boardSignName/existing"
						}, {
							"Code": "boardSignDate",
							"Value": "2017-11-15",
							"AdditionalValue": "/functions/voice/voiceBasisConfiguration/boardSignDate/existing"
						}, {
							"Code": "primaryCustSignName",
							"Value": "BSS24_ONB_BIT_Bas_16",
							"AdditionalValue": "/functions/voice/voiceBasisConfiguration/primaryCustSignName/existing"
						}, {
							"Code": "primaryCustSignDate",
							"Value": "2017-10-31",
							"AdditionalValue": "/functions/voice/voiceBasisConfiguration/primaryCustSignDate/existing"
						}, {
							"Code": "value",
							"Value": "24",
							"AdditionalValue": "/functions/voice/voiceBasisConfiguration/minimumDurationPeriod/value/existing"
						}, {
							"Code": "unit",
							"Value": "MONTH",
							"AdditionalValue": "/functions/voice/voiceBasisConfiguration/minimumDurationPeriod/unit/existing"
						}, {
							"Code": "startDate",
							"Value": "2017-11-15",
							"AdditionalValue": "/functions/voice/voiceBasisConfiguration/minimumDurationPeriod/startDate/existing"
						}, {
							"Code": "value",
							"Value": "12",
							"AdditionalValue": "/functions/voice/voiceBasisConfiguration/autoExtension/value/existing"
						}, {
							"Code": "unit",
							"Value": "MONTH",
							"AdditionalValue": "/functions/voice/voiceBasisConfiguration/autoExtension/unit/existing"
						}, {
							"Code": "autoExtensionIndicator",
							"Value": "true",
							"AdditionalValue": "/functions/voice/voiceBasisConfiguration/autoExtension/autoExtensionIndicator/existing"
						}, {
							"Code": "value",
							"Value": "3",
							"AdditionalValue": "/functions/voice/voiceBasisConfiguration/noticePeriod/value/existing"
						}, {
							"Code": "unit",
							"Value": "MONTH",
							"AdditionalValue": "/functions/voice/voiceBasisConfiguration/noticePeriod/unit/existing"
						}, {
							"Code": "contractExpirationDate",
							"Value": "2019-11-14",
							"AdditionalValue": "/functions/voice/voiceBasisConfiguration/contractExpirationDate/existing"
						}, {
							"Code": "specialTerminationRight",
							"Value": "NONE",
							"AdditionalValue": "/functions/voice/voiceBasisConfiguration/specialTerminationRight/existing"
						}, {
							"Code": "discountType",
							"Value": "keine Kondition/Rabatt",
							"AdditionalValue": "/functions/voice/voiceBasisConfiguration/discountType/existing"
						}, {
							"Code": "automaticMailingIndicator",
							"Value": "true",
							"AdditionalValue": "/functions/voice/voiceBasisConfiguration/automaticMailingIndicator/existing"
						}, {
							"Code": "activationType",
							"Value": "Neuanschluss",
							"AdditionalValue": "/functions/voice/voiceBasisConfiguration/activationType/existing"
						}, {
							"Code": "customerCallBackNumber",
							"Value": "030/123456",
							"AdditionalValue": "/functions/voice/voiceBasisConfiguration/customerCallBackNumber/existing"
						}, {
							"Code": "featureServiceCode",
							"Value": "V0017",
							"AdditionalValue": "/functions/voice/voiceBasisConfiguration/featuresList/existing/featureService[@ID=V0017]/featureServiceCode"
						}, {
							"Code": "remarks",
							"Value": "GK-Vertrieb C3, IMP, Betreute Schaltung nein, Gesch\u00e4ftskunde / Standard-Telefonbucheintrag /",
							"AdditionalValue": "/functions/voice/voiceBasisConfiguration/remarks/existing"
						}, {
							"Code": "countryCode",
							"Value": "49",
							"AdditionalValue": "/functions/voice/voiceBasisConfiguration/phoneNumbersList/existing/phoneNumber/countryCode"
						}, {
							"Code": "mailboxAlias",
							"Value": "33876844:xxx-online",
							"AdditionalValue": "/functions/voice/voiceBasisConfiguration/mailboxAlias/existing"
						}, {
							"Code": "portingMode",
							"Value": "Nein",
							"AdditionalValue": "/functions/voice/voiceBasisConfiguration/portingAccessNumbers/portingMode/existing"
						}, {
							"Code": "numberOfNewAccessNumbers",
							"Value": "0",
							"AdditionalValue": "/functions/voice/voiceBasisConfiguration/portingAccessNumbers/numberOfNewAccessNumbers/existing"
						}, {
							"Code": "oldLocalExchangeCarrier",
							"Value": "DTAG",
							"AdditionalValue": "/functions/voice/voiceBasisConfiguration/portingAccessNumbers/oldLocalExchangeCarrier/existing"
						}, {
							"Code": "countryCode",
							"Value": "49",
							"AdditionalValue": "/functions/voice/voiceBasisConfiguration/portingAccessNumbers/accessNumber1/existing/countryCode"
						}, {
							"Code": "voipAccount1",
							"Value": "021159828938@arcor.de",
							"AdditionalValue": "/functions/voice/voiceBasisConfiguration/portingAccessNumbers/voipAccount1/existing"
						}, {
							"Code": "portingMode1",
							"Value": "Nein",
							"AdditionalValue": "/functions/voice/voiceBasisConfiguration/portingAccessNumbers/portingMode1/existing"
						}, {
							"Code": "name",
							"Value": "BSS24_ONB_BIT_Bas_16",
							"AdditionalValue": "/functions/voice/voiceBasisConfiguration/portingAccessNumbers/lineOwner1/existing/name"
						}, {
							"Code": "city",
							"Value": "D\u00fcsseldorf",
							"AdditionalValue": "/functions/voice/voiceBasisConfiguration/portingAccessNumbers/lineOwnerAddress/existing/city"
						}, {
							"Code": "postalCode",
							"Value": "40547",
							"AdditionalValue": "/functions/voice/voiceBasisConfiguration/portingAccessNumbers/lineOwnerAddress/existing/postalCode"
						}, {
							"Code": "street",
							"Value": "Am Seestern",
							"AdditionalValue": "/functions/voice/voiceBasisConfiguration/portingAccessNumbers/lineOwnerAddress/existing/street"
						}, {
							"Code": "streetNumber",
							"Value": "132",
							"AdditionalValue": "/functions/voice/voiceBasisConfiguration/portingAccessNumbers/lineOwnerAddress/existing/streetNumber"
						}, {
							"Code": "country",
							"Value": "DE",
							"AdditionalValue": "/functions/voice/voiceBasisConfiguration/portingAccessNumbers/lineOwnerAddress/existing/country"
						}, {
							"Code": "connectionType",
							"Value": "basic",
							"AdditionalValue": "/functions/voice/voiceBasisConfiguration/connectionType/existing"
						}],
						"TN": {
							"CountryCode": "49",
							"LocalAreaCode": "0211",
							"PhoneNumber": "59828938"
						}
					}
				},
				"Address": [{
					"ID": [],
					"AddressTypeCode": "L",
					"Postbox": [],
					"StreetName": "Am Seestern",
					"BuildingNumber": "132",
					"CityName": "D\u00fcsseldorf null",
					"PostalZone": "40547",
					"CountrySubentity": [],
					"District": [],
					"Country": {
						"Name": []
					}
				}, {
					"ID": [],
					"AddressTypeCode": "B",
					"Postbox": [],
					"StreetName": "Am Seestern",
					"BuildingNumber": "132",
					"CityName": "D\u00fcsseldorf",
					"PostalZone": "40547",
					"CountrySubentity": [],
					"District": [],
					"Country": {
						"Name": []
					}
				}, {
					"ID": [],
					"AddressTypeCode": "S",
					"Postbox": [],
					"StreetName": "Am Seestern",
					"BuildingNumber": "132",
					"CityName": "D\u00fcsseldorf",
					"PostalZone": "40547",
					"CountrySubentity": [],
					"District": [],
					"Country": {
						"Name": "DE"
					}
				}, {
					"ID": [],
					"AddressTypeCode": "D",
					"Postbox": [],
					"StreetName": "Am Seestern",
					"BuildingNumber": "132",
					"CityName": "D\u00fcsseldorf",
					"PostalZone": "40547",
					"CountrySubentity": [],
					"District": [],
					"Country": {
						"Name": []
					}
				}],
				"Contact": [{
					"SequenceID": {
						"ID": []
					},
					"Contact": {
						"ElectronicMail": []
					},
					"PartyType": "LegalContact",
					"DhlIdentification": [],
					"ParentAccountNumber": {
						"ID": "002883721305"
					},
					"ContactPhoneNumber": {
						"CountryCode": "49",
						"LocalAreaCode": "030",
						"PhoneNumber": "123456",
						"Type": "FIXED_PHONE"
					},
					"Role": {
						"Person": []
					}
				}, {
					"SequenceID": {
						"ID": []
					},
					"Contact": {
						"ElectronicMail": []
					},
					"PartyType": "BillingContact",
					"DhlIdentification": [],
					"ParentAccountNumber": {
						"ID": "002883721305"
					},
					"ContactPhoneNumber": {
						"CountryCode": "49",
						"LocalAreaCode": "030",
						"PhoneNumber": "123456",
						"Type": "FIXED_PHONE"
					},
					"Role": {
						"Person": []
					}
				}, {
					"SequenceID": {
						"ID": []
					},
					"Contact": {
						"ElectronicMail": []
					},
					"PartyType": "DeliveryContact",
					"DhlIdentification": [],
					"ParentAccountNumber": {
						"ID": "002883721305"
					},
					"Role": {
						"Person": {
							"FamilyName": "BSS24_ONB_BIT_Bas_16",
							"Salutation": "Firma"
						}
					}
				}],
				"InMinimumDurationPeriod": "Y"
			}],
			"Product": {
				"Component": {
					"ComponentAdditionalData": [{
						"Code": "pkatPacketId",
						"Value": "R708.2000000017",
						"AdditionalValue": "/pkatPacketId/existing"
					}, {
						"Code": "salesPackageName",
						"Value": "Red Internet & Phone 50 DSL",
						"AdditionalValue": "/salesPackageName/existing"
					}]
				}
			}
		},
		"Device": [{
			"StandardItemIdentification": {
				"ID": "F0000000385039626"
			},
			"BackEndCustomerID": "002883721305",
			"Component": {
				"ComponentAdditionalData": [{
					"Code": "function@ID",
					"Value": "F0000000385039626",
					"AdditionalValue": "/functions/directoryEntry"
				}, {
					"Code": "processingType",
					"Value": "IGNORE",
					"AdditionalValue": "/functions/directoryEntry/processingType"
				}, {
					"Code": "ccbId",
					"Value": "0000000385039626",
					"AdditionalValue": "/functions/directoryEntry/ccbId/existing"
				}, {
					"Code": "refFunctionID",
					"Value": "F0000000385039625",
					"AdditionalValue": "/functions/directoryEntry/refFunctionID/existing"
				}, {
					"Code": "directoryEntryType",
					"Value": "Einzeleintrag",
					"AdditionalValue": "/functions/directoryEntry/directoryEntryConfiguration/directoryEntryType/existing"
				}, {
					"Code": "inverseSearchIndicator",
					"Value": "true",
					"AdditionalValue": "/functions/directoryEntry/directoryEntryConfiguration/inverseSearchIndicator/existing"
				}, {
					"Code": "titleDescription",
					"Value": [],
					"AdditionalValue": "/functions/directoryEntry/directoryEntryConfiguration/titleDescription/existing"
				}, {
					"Code": "forename",
					"Value": [],
					"AdditionalValue": "/functions/directoryEntry/directoryEntryConfiguration/forename/existing"
				}, {
					"Code": "nobilityPrefixDescription",
					"Value": [],
					"AdditionalValue": "/functions/directoryEntry/directoryEntryConfiguration/nobilityPrefixDescription/existing"
				}, {
					"Code": "surnamePrefix",
					"Value": [],
					"AdditionalValue": "/functions/directoryEntry/directoryEntryConfiguration/surnamePrefix/existing"
				}, {
					"Code": "name",
					"Value": "BSS24_ONB_BIT_Bas_16",
					"AdditionalValue": "/functions/directoryEntry/directoryEntryConfiguration/name/existing"
				}, {
					"Code": "profession",
					"Value": [],
					"AdditionalValue": "/functions/directoryEntry/directoryEntryConfiguration/profession/existing"
				}, {
					"Code": "industrialSectorRd",
					"Value": [],
					"AdditionalValue": "/functions/directoryEntry/directoryEntryConfiguration/industrialSectorRd/existing"
				}, {
					"Code": "city",
					"Value": "D\u00fcsseldorf",
					"AdditionalValue": "/functions/directoryEntry/directoryEntryConfiguration/listedAddress/existing/city"
				}, {
					"Code": "citySuffix",
					"Value": [],
					"AdditionalValue": "/functions/directoryEntry/directoryEntryConfiguration/listedAddress/existing/citySuffix"
				}, {
					"Code": "postalCode",
					"Value": "40547",
					"AdditionalValue": "/functions/directoryEntry/directoryEntryConfiguration/listedAddress/existing/postalCode"
				}, {
					"Code": "street",
					"Value": "Am Seestern",
					"AdditionalValue": "/functions/directoryEntry/directoryEntryConfiguration/listedAddress/existing/street"
				}, {
					"Code": "streetNumber",
					"Value": "132",
					"AdditionalValue": "/functions/directoryEntry/directoryEntryConfiguration/listedAddress/existing/streetNumber"
				}, {
					"Code": "streetNumberSuffix",
					"Value": [],
					"AdditionalValue": "/functions/directoryEntry/directoryEntryConfiguration/listedAddress/existing/streetNumberSuffix"
				}, {
					"Code": "postOfficeBox",
					"Value": [],
					"AdditionalValue": "/functions/directoryEntry/directoryEntryConfiguration/listedAddress/existing/postOfficeBox"
				}, {
					"Code": "additionalAddressDescription",
					"Value": [],
					"AdditionalValue": "/functions/directoryEntry/directoryEntryConfiguration/listedAddress/existing/additionalAddressDescription"
				}, {
					"Code": "country",
					"Value": "DE",
					"AdditionalValue": "/functions/directoryEntry/directoryEntryConfiguration/listedAddress/existing/country"
				}, {
					"Code": "countryCode",
					"Value": "49",
					"AdditionalValue": "/functions/directoryEntry/directoryEntryConfiguration/listedPhoneNumber/existing/countryCode"
				}, {
					"Code": "directoryEntryText",
					"Value": "[DirectoryEntryKeyword];01  PRN  ELewAUS;123456789;BSS24_ONB_BIT_Bas_16;;;;;;;;Am Seestern;132;;;40547;D\u00fcsseldorf;;DE",
					"AdditionalValue": "/functions/directoryEntry/directoryEntryConfiguration/directoryEntryText/existing"
				}]
			},
			"ServiceLineID": "F0000000385039625"
		}, {
			"StandardItemIdentification": {
				"ID": "F0000000385039627"
			},
			"BackEndCustomerID": "002883721305",
			"Component": {
				"ComponentAdditionalData": [{
					"Code": "function@ID",
					"Value": "F0000000385039627",
					"AdditionalValue": "/functions/hardware"
				}, {
					"Code": "processingType",
					"Value": "IGNORE",
					"AdditionalValue": "/functions/hardware/processingType"
				}, {
					"Code": "ccbId",
					"Value": "0000000385039627",
					"AdditionalValue": "/functions/hardware/ccbId/existing"
				}, {
					"Code": "refFunctionID",
					"Value": "F0000000385039624",
					"AdditionalValue": "/functions/hardware/refFunctionID/existing"
				}, {
					"Code": "hardwareServiceCode",
					"Value": "V011A",
					"AdditionalValue": "/functions/hardware/rentedHardwareConfiguration/hardwareServiceCode/existing"
				}, {
					"Code": "hardwareType",
					"Value": "IAD",
					"AdditionalValue": "/functions/hardware/rentedHardwareConfiguration/hardwareType/existing"
				}, {
					"Code": "articleNumber",
					"Value": "20090128",
					"AdditionalValue": "/functions/hardware/rentedHardwareConfiguration/articleNumber/existing"
				}, {
					"Code": "articleName",
					"Value": "Vodafone EasyBox 804 (Mietger\u00e4t)",
					"AdditionalValue": "/functions/hardware/rentedHardwareConfiguration/articleName/existing"
				}, {
					"Code": "orderReason",
					"Value": "Doku - Kein Versand",
					"AdditionalValue": "/functions/hardware/rentedHardwareConfiguration/orderReason/existing"
				}, {
					"Code": "subventionCode",
					"Value": "1",
					"AdditionalValue": "/functions/hardware/rentedHardwareConfiguration/subventionCode/existing"
				}, {
					"Code": "shippingCosts",
					"Value": "RGoVP",
					"AdditionalValue": "/functions/hardware/rentedHardwareConfiguration/shippingCosts/existing"
				}, {
					"Code": "salutationDescription",
					"Value": "Firma",
					"AdditionalValue": "/functions/hardware/rentedHardwareConfiguration/salutationDescription/existing"
				}, {
					"Code": "name",
					"Value": "BSS24_ONB_BIT_Bas_16",
					"AdditionalValue": "/functions/hardware/rentedHardwareConfiguration/name/existing"
				}, {
					"Code": "salutationDescription",
					"Value": "Firma",
					"AdditionalValue": "/functions/hardware/rentedHardwareConfiguration/hardwareRecipient/existing/salutationDescription"
				}, {
					"Code": "name",
					"Value": "BSS24_ONB_BIT_Bas_16",
					"AdditionalValue": "/functions/hardware/rentedHardwareConfiguration/hardwareRecipient/existing/name"
				}, {
					"Code": "city",
					"Value": "D\u00fcsseldorf",
					"AdditionalValue": "/functions/hardware/rentedHardwareConfiguration/hardwareMailingAddress/existing/city"
				}, {
					"Code": "postalCode",
					"Value": "40547",
					"AdditionalValue": "/functions/hardware/rentedHardwareConfiguration/hardwareMailingAddress/existing/postalCode"
				}, {
					"Code": "street",
					"Value": "Am Seestern",
					"AdditionalValue": "/functions/hardware/rentedHardwareConfiguration/hardwareMailingAddress/existing/street"
				}, {
					"Code": "streetNumber",
					"Value": "132",
					"AdditionalValue": "/functions/hardware/rentedHardwareConfiguration/hardwareMailingAddress/existing/streetNumber"
				}, {
					"Code": "country",
					"Value": "DE",
					"AdditionalValue": "/functions/hardware/rentedHardwareConfiguration/hardwareMailingAddress/existing/country"
				}, {
					"Code": "conditionServiceType",
					"Value": "HW",
					"AdditionalValue": "/functions/hardware/rentedHardwareConfiguration/conditionsList/existing/conditionService[@ID=Monatspreis ohne Einmalpreisbefreiung]/conditionServiceType"
				}, {
					"Code": "conditionServiceName",
					"Value": "Monatspreis ohne Einmalpreisbefreiung",
					"AdditionalValue": "/functions/hardware/rentedHardwareConfiguration/conditionsList/existing/conditionService[@ID=Monatspreis ohne Einmalpreisbefreiung]/conditionServiceName"
				}, {
					"Code": "conditionServiceCode",
					"Value": "V0854",
					"AdditionalValue": "/functions/hardware/rentedHardwareConfiguration/conditionsList/existing/conditionService[@ID=Monatspreis ohne Einmalpreisbefreiung]/conditionServiceCode"
				}, {
					"Code": "conditionServiceStartDate",
					"Value": "2017-11-15",
					"AdditionalValue": "/functions/hardware/rentedHardwareConfiguration/conditionsList/existing/conditionService[@ID=Monatspreis ohne Einmalpreisbefreiung]/conditionServiceStartDate"
				}, {
					"Code": "compensationFeeIndicator",
					"Value": "true",
					"AdditionalValue": "/functions/hardware/rentedHardwareConfiguration/compensationFeeIndicator/existing"
				}, {
					"Code": "sapOrderId",
					"Value": "20080546",
					"AdditionalValue": "/functions/hardware/rentedHardwareConfiguration/sapOrderId/existing"
				}, {
					"Code": "deliveryDate",
					"Value": "2017-11-15",
					"AdditionalValue": "/functions/hardware/rentedHardwareConfiguration/deliveryDate/existing"
				}]
			},
			"ServiceLineID": "F0000000385039624"
		}],
		"BillingAccount": {
			"PartyIdentyfication": {
				"ID": "1544970475"
			},
			"BackEndCustomerID": "002883721305",
			"PaymentMethod": [],
			"BillingType": "PAPER"
		}
	}
}
