<svg xmlns="http://www.w3.org/2000/svg" xmlns:xlink="http://www.w3.org/1999/xlink" width="16" height="16" viewBox="0 0 16 16">
    <defs>
        <path id="a" d="M14.222 0H1.778C.8 0 0 .8 0 1.778v12.444C0 15.2.8 16 1.778 16h12.444C15.2 16 16 15.2 16 14.222V1.778C16 .8 15.2 0 14.222 0z"/>
    </defs>
    <g fill="none" fill-rule="evenodd">
        <mask id="b" fill="#fff">
            <use xlink:href="#a"/>
        </mask>
        <use fill="#009CA7" xlink:href="#a"/>
        <g fill="#009CA7" mask="url(#b)">
            <path d="M0 0h16v16H0z"/>
        </g>
        <path fill="#FFF" d="M3 7.6l1.375-.9 3.209 3.6L12.622 4 14 4.9 7.583 13z"/>
    </g>
</svg>
