<svg xmlns="http://www.w3.org/2000/svg" width="34" height="40" viewBox="0 0 34 40">
    <g fill="none" fill-rule="evenodd">
        <g transform="translate(1 1)">
            <path fill="#2D4552" d="M16 13.1l10.728 10.728L16 39 5.272 23.828z"/>
            <circle cx="16" cy="16" r="16" fill="#FFF" stroke="#D8D9DA"/>
        </g>
        <g transform="translate(2 2)">
            <circle cx="15" cy="15" r="15" fill="#371400"/>
            <g fill="#FEBE10">
                <path d="M20.02 12.204c-.01-1.826 1.545-2.902 3.032-2.945 1.24-.038 2.082.429 2.48.734v1.965c-.471-.483-1.235-.921-2.025-.929-.64-.005-1.307.277-1.33 1.08-.02.822.644 1.148 1.487 1.641 1.888 1.11 2.252 2.107 2.21 3.425-.043 1.445-1.04 3.023-3.272 3.023-.893 0-1.776-.28-2.484-.701v-2.081c.577.514 1.439.914 2.16.92.829.003 1.374-.472 1.355-1.26-.017-.71-.418-1.094-1.412-1.678-1.863-1.093-2.197-1.992-2.2-3.194zM4.35 16.59V9.488h2.259v7.203c0 .64.154 1.59 1.19 1.59.459 0 .823-.108 1.069-.276V9.488h2.256v9.802c-.863.587-2.022.908-3.405.908-2.236 0-3.369-1.214-3.369-3.608zM14.543 24.789h-2.26V10.063c.82-.529 1.813-.804 3.046-.804 2.696 0 4.179 2.047 4.179 5.34 0 3.3-1.44 5.56-3.948 5.56a3.56 3.56 0 0 1-1.017-.128v4.758zm0-13.547v6.941c.162.062.428.137.733.137 1.301 0 1.923-1.193 1.923-3.663 0-2.531-.544-3.578-1.856-3.578-.306 0-.616.072-.8.163z"/>
            </g>
        </g>
    </g>
</svg>
