<svg xmlns="http://www.w3.org/2000/svg" width="30" height="30" viewBox="0 0 30 30">
    <g fill="none" fill-rule="evenodd">
        <circle cx="15" cy="15" r="15" fill="#FFF"/>
        <path fill="#CC2131" fill-rule="nonzero" d="M19.57 3.92c-2.112.478-3.704 2.419-3.704 4.742 0 .05.012.11.013.16 3.342.733 5.026 3.058 5.026 6.124 0 3.445-2.729 6.238-6.065 6.238-3.338 0-6.454-2.874-6.454-7.135 0-5.202 4.32-10.083 10.475-10.237.11-.003.287.001.466.01A11.941 11.941 0 0 0 14.96 3C8.355 3 3 8.349 3 14.946c0 6.598 5.355 11.946 11.96 11.946s11.959-5.348 11.959-11.946c0-4.965-3.033-9.222-7.349-11.026z"/>
    </g>
</svg>
