{
    "eligible_price_plans": [
        {
            "product_offer_code": "3246065",
            "base_price_plan_code": "BO_RED_BUSINESS_3_SUPER_B",
            "base_price_plan_name": "BO_Red Business-3 Super B",
            "base_price_plan_o_c_list_price": {
                "name": "BO_Red Business-3 Super B",
                "description": "Red Business-3 Super B",
                "cid": "3153245",
                "prices": {
                    "rate": "30.25",
                    "rate_without_tax": "25",
                    "tax_percentage": "21",
                    "tax_rate": "5.25"
                },
                "price_type": "OC"
            },
            "base_price_plan_list_price": {
                "name": "BO_Red Business-3 Super B",
                "description": "Red Business-3 Super B",
                "cid": "3153245",
                "prices": {
                    "rate": "90.59",
                    "rate_without_tax": "74.87",
                    "tax_percentage": "21",
                    "tax_rate": "15.72"
                },
                "price_type": "RC"
            },
            "upgrade_indicator": "U",
            "required_extended_commitment": "0",
            "administrative_fees": "NaN",
            "activity_penalty_rate": "NaN"
        },
        {
            "product_offer_code": "3246065",
            "base_price_plan_code": "BO_RED_BUSINESS_3_SUPER_B",
            "base_price_plan_name": "BO_Red Business-3 Super B",
            "base_price_plan_o_c_list_price": {
                "name": "BO_Red Business-3 Super B",
                "description": "Red Business-3 Super B",
                "cid": "3153245",
                "prices": {
                    "rate": "30.25",
                    "rate_without_tax": "25",
                    "tax_percentage": "21",
                    "tax_rate": "5.25"
                },
                "price_type": "OC"
            },
            "base_price_plan_list_price": {
                "name": "BO_Red Business-3 Super B",
                "description": "Red Business-3 Super B",
                "cid": "3153245",
                "prices": {
                    "rate": "90.59",
                    "rate_without_tax": "74.87",
                    "tax_percentage": "21",
                    "tax_rate": "15.72"
                },
                "price_type": "RC"
            },
            "upgrade_indicator": "D",
            "required_extended_commitment": "0",
            "administrative_fees": "50",
            "activity_penalty_rate": "NaN"
        }
    ]
}