<svg xmlns="http://www.w3.org/2000/svg" xmlns:xlink="http://www.w3.org/1999/xlink" width="20" height="20" viewBox="0 0 20 20">
    <defs>
        <path id="a" d="M7.999 2.909a3.637 3.637 0 0 1 3.635 3.635c0 .473-.094.917-.261 1.331l2.123 2.123a8.593 8.593 0 0 0 2.494-3.454c-1.258-3.192-4.363-5.453-7.999-5.453a8.468 8.468 0 0 0-2.894.509l1.571 1.57a3.529 3.529 0 0 1 1.33-.261zM.727.923l1.658 1.658.335.335A8.583 8.583 0 0 0 0 6.544c1.258 3.193 4.363 5.454 7.999 5.454a8.563 8.563 0 0 0 3.185-.61l.305.305 2.13 2.123.924-.924L1.651 0 .727.923zm4.021 4.022l1.127 1.127a2.051 2.051 0 0 0-.058.472c0 1.207.975 2.182 2.182 2.182.16 0 .32-.022.472-.058l1.127 1.127a3.604 3.604 0 0 1-1.6.385 3.637 3.637 0 0 1-3.635-3.636c0-.574.145-1.112.385-1.6zm3.134-.568l2.29 2.291.015-.116A2.179 2.179 0 0 0 8.006 4.37l-.124.007z"/>
    </defs>
    <g fill="none" fill-rule="evenodd" transform="translate(2 3)">
        <mask id="b" fill="#fff">
            <use xlink:href="#a"/>
        </mask>
        <use fill="#000" xlink:href="#a"/>
        <g fill="#2D4552" mask="url(#b)">
            <path d="M-2-3h20v20H-2z"/>
        </g>
    </g>
</svg>
