 {
 	"ReferenceID": "5a436f4bb68c5",
 	"Status": {
 		"StatusReasonCode": "ERR-0000",
 		"StatusReason": "SUCCESS"
 	},
 	"Success": "true",
 	"Customer": {
 		"PartyIdentification": {
 			"ID": "FN_001908149988"
 		},
 		"Contact": {
 			"ElectronicMail": "test@web.de"
 		},
 		"PostalAddresses": [{
 			"ID": [],
 			"AddressTypeCode": "L",
 			"Postbox": [],
 			"StreetName": "Bahnhofsplatz",
 			"BuildingNumber": "8",
 			"CityName": "Kassel",
 			"PostalZone": "34117",
 			"CountrySubentity": [],
 			"District": [],
 			"Country": {
 				"Name": []
 			}
 		}, {
 			"ID": [],
 			"AddressTypeCode": "B",
 			"Postbox": [],
 			"StreetName": "Bahnhofsplatz",
 			"BuildingNumber": "8",
 			"CityName": "Kassel",
 			"PostalZone": "34117",
 			"CountrySubentity": [],
 			"District": [],
 			"Country": {
 				"Name": []
 			}
 		}, {
 			"ID": [],
 			"AddressTypeCode": "S",
 			"Postbox": [],
 			"StreetName": "Am Ochsenberg",
 			"BuildingNumber": "12",
 			"CityName": "R\u00f6tgesb\u00fcttel",
 			"PostalZone": "38531",
 			"CountrySubentity": [],
 			"District": [],
 			"Country": {
 				"Name": "DE"
 			}
 		}],
 		"CustomerPassword": "vodafone",
 		"CustomerLifeCycleStatus": [],
 		"AccountCategory": "FN",
 		"PartyType": "PRIVATE",
 		"ParentAccountNumber": {
 			"ID": "001908149988"
 		},
 		"Role": {
 			"Person": {
 				"FirstName": "Ingrid",
 				"FamilyName": "Becker",
 				"BirthDate": "1963-12-01",
 				"Salutation": "N"
 			}
 		},
 		"BillingAccount": {
 			"ID": "DE47100500001260184117",
 			"FinancialInstitutionBranch": {
 				"ID": "10050000",
 				"Name": "LBB - Bln Sparkasse"
 			},
 			"PartyIdentyfication": {
 				"ID": "1016105567"
 			},
 			"BackEndCustomerID": "001908149988",
 			"AccountNumber": "1260184117",
 			"PaymentMethod": [],
 			"BillingType": "EMAIL",
 			"BIC": "BELADEBEXXX"
 		}
 	}
 }
