{
  "appointmentId": null,
  "availableDateDetails": [
    {
      "availableStartDate": "01-02-2020",
      "availableTimeSlots": []
    },
    {
      "availableStartDate": "02-02-2020",
      "availableTimeSlots": []
    },
    {
      "availableStartDate": "03-02-2020",
      "availableTimeSlots": []
    },
    {
      "availableStartDate": "04-02-2020",
      "availableTimeSlots": []
    },
    {
      "availableStartDate": "05-02-2020",
      "availableTimeSlots": []
    },
    {
      "availableStartDate": "06-02-2020",
      "availableTimeSlots": []
    },
    {
      "availableStartDate": "07-02-2020",
      "availableTimeSlots": []
    },
    {
      "availableStartDate": "08-02-2020",
      "availableTimeSlots": []
    },
    {
      "availableStartDate": "09-02-2020",
      "availableTimeSlots": []
    },
    {
      "availableStartDate": "10-02-2020",
      "availableTimeSlots": []
    },
    {
      "availableStartDate": "11-02-2020",
      "availableTimeSlots": []
    },
    {
      "availableStartDate": "12-02-2020",
      "availableTimeSlots": []
    },
    {
      "availableStartDate": "13-02-2020",
      "availableTimeSlots": []
    },
    {
      "availableStartDate": "14-02-2020",
      "availableTimeSlots": []
    },
    {
      "availableStartDate": "15-02-2020",
      "availableTimeSlots": []
    },
    {
      "availableStartDate": "16-02-2020",
      "availableTimeSlots": []
    },
    {
      "availableStartDate": "17-02-2020",
      "availableTimeSlots": []
    },
    {
      "availableStartDate": "18-02-2020",
      "availableTimeSlots": []
    },
    {
      "availableStartDate": "19-02-2020",
      "availableTimeSlots": []
    },
    {
      "availableStartDate": "20-02-2020",
      "availableTimeSlots": []
    },
    {
      "availableStartDate": "21-02-2020",
      "availableTimeSlots": []
    },
    {
      "availableStartDate": "22-02-2020",
      "availableTimeSlots": []
    },
    {
      "availableStartDate": "23-02-2020",
      "availableTimeSlots": []
    },
    {
      "availableStartDate": "24-02-2020",
      "availableTimeSlots": []
    },
    {
      "availableStartDate": "25-02-2020",
      "availableTimeSlots": []
    },
    {
      "availableStartDate": "26-02-2020",
      "availableTimeSlots": []
    },
    {
      "availableStartDate": "27-02-2020",
      "availableTimeSlots": []
    },
    {
      "availableStartDate": "28-02-2020",
      "availableTimeSlots": []
    },
    {
      "availableStartDate": "29-02-2020",
      "availableTimeSlots": []
    },
    {
      "availableStartDate": "01-03-2020",
      "availableTimeSlots": []
    },
    {
      "availableStartDate": "02-03-2020",
      "availableTimeSlots": []
    },
    {
      "availableStartDate": "05-03-2020",
      "availableTimeSlots": []
    },
    {
      "availableStartDate": "06-03-2020",
      "availableTimeSlots": []
    },
    {
      "availableStartDate": "07-03-2020",
      "availableTimeSlots": []
    },
    {
      "availableStartDate": "08-03-2020",
      "availableTimeSlots": []
    },
    {
      "availableStartDate": "09-03-2020",
      "availableTimeSlots": []
    },
    {
      "availableStartDate": "10-03-2020",
      "availableTimeSlots": []
    },
    {
      "availableStartDate": "11-03-2020",
      "availableTimeSlots": []
    },
    {
      "availableStartDate": "12-03-2020",
      "availableTimeSlots": []
    },
    {
      "availableStartDate": "13-03-2020",
      "availableTimeSlots": []
    },
    {
      "availableStartDate": "14-03-2020",
      "availableTimeSlots": []
    },
    {
      "availableStartDate": "15-03-2020",
      "availableTimeSlots": []
    },
    {
      "availableStartDate": "16-03-2020",
      "availableTimeSlots": []
    },
    {
      "availableStartDate": "17-03-2020",
      "availableTimeSlots": []
    },
    {
      "availableStartDate": "18-03-2020",
      "availableTimeSlots": []
    },
    {
      "availableStartDate": "19-03-2020",
      "availableTimeSlots": []
    },
    {
      "availableStartDate": "20-03-2020",
      "availableTimeSlots": []
    },
    {
      "availableStartDate": "21-03-2020",
      "availableTimeSlots": []
    },
    {
      "availableStartDate": "22-03-2020",
      "availableTimeSlots": []
    },
    {
      "availableStartDate": "23-03-2020",
      "availableTimeSlots": []
    },
    {
      "availableStartDate": "24-03-2020",
      "availableTimeSlots": []
    },
    {
      "availableStartDate": "25-03-2020",
      "availableTimeSlots": []
    },
    {
      "availableStartDate": "26-03-2020",
      "availableTimeSlots": []
    },
    {
      "availableStartDate": "27-03-2020",
      "availableTimeSlots": []
    },
    {
      "availableStartDate": "28-03-2020",
      "availableTimeSlots": []
    },
    {
      "availableStartDate": "29-03-2020",
      "availableTimeSlots": []
    },
    {
      "availableStartDate": "30-03-2020",
      "availableTimeSlots": []
    },
    {
      "availableStartDate": "31-03-2020",
      "availableTimeSlots": []
    },
    {
      "availableStartDate": "01-04-2020",
      "availableTimeSlots": []
    },
    {
      "availableStartDate": "02-04-2020",
      "availableTimeSlots": []
    },
    {
      "availableStartDate": "03-04-2020",
      "availableTimeSlots": []
    },
    {
      "availableStartDate": "04-04-2020",
      "availableTimeSlots": []
    },
    {
      "availableStartDate": "05-04-2020",
      "availableTimeSlots": []
    },
    {
      "availableStartDate": "06-04-2020",
      "availableTimeSlots": []
    },
    {
      "availableStartDate": "07-04-2020",
      "availableTimeSlots": []
    },
    {
      "availableStartDate": "08-04-2020",
      "availableTimeSlots": []
    },
    {
      "availableStartDate": "09-04-2020",
      "availableTimeSlots": []
    },
    {
      "availableStartDate": "10-04-2020",
      "availableTimeSlots": []
    },
    {
      "availableStartDate": "11-04-2020",
      "availableTimeSlots": []
    },
    {
      "availableStartDate": "12-04-2020",
      "availableTimeSlots": []
    },
    {
      "availableStartDate": "13-04-2020",
      "availableTimeSlots": []
    },
    {
      "availableStartDate": "14-04-2020",
      "availableTimeSlots": []
    },
    {
      "availableStartDate": "15-04-2020",
      "availableTimeSlots": []
    },
    {
      "availableStartDate": "16-04-2020",
      "availableTimeSlots": []
    },
    {
      "availableStartDate": "17-04-2020",
      "availableTimeSlots": []
    },
    {
      "availableStartDate": "18-04-2020",
      "availableTimeSlots": []
    },
    {
      "availableStartDate": "19-04-2020",
      "availableTimeSlots": []
    },
    {
      "availableStartDate": "20-04-2020",
      "availableTimeSlots": []
    },
    {
      "availableStartDate": "21-04-2020",
      "availableTimeSlots": []
    },
    {
      "availableStartDate": "22-04-2020",
      "availableTimeSlots": []
    },
    {
      "availableStartDate": "23-04-2020",
      "availableTimeSlots": []
    },
    {
      "availableStartDate": "24-04-2020",
      "availableTimeSlots": []
    },
    {
      "availableStartDate": "25-04-2020",
      "availableTimeSlots": []
    },
    {
      "availableStartDate": "26-04-2020",
      "availableTimeSlots": []
    },
    {
      "availableStartDate": "27-04-2020",
      "availableTimeSlots": []
    },
    {
      "availableStartDate": "28-04-2020",
      "availableTimeSlots": []
    },
    {
      "availableStartDate": "29-04-2020",
      "availableTimeSlots": []
    },
    {
      "availableStartDate": "30-04-2020",
      "availableTimeSlots": []
    }
  ],
  "explanationRemarks": [
    "WSHDT_RULE_RES_CUSTOMER"
  ],
  "proposedOverstappenDate": "01-01-2021",
  "warningCode": null,
  "warningDescription": null
}