{
  "Success" : "true",
  "Manufacturer": "AV",
  "ConverterType": "H2",
  "MacAddress" : "0005691d3725",
  "EquipmentOwnership": "CAPEX",
  "EquipmentModelType": "HOMEBOX2",
  "MaxBandwidth": 100,
  "SupportsWlan": true,
  "SupportsHomespot": false,
  "SupportsVoice": true
}
