{
  "Status": {
    "ResponseDetails": {
      "Success": "S",
      "Text": "MESSAGE"
    }
  },
  "Success": "true",
  "ShippingFee": {
    "PaidAmount": "38",
    "GrossPrice": "40",
    "ValidFrom": "1999-05-31",
    "ValidTo": "1999-05-31"
  }
}