<svg xmlns="http://www.w3.org/2000/svg" xmlns:xlink="http://www.w3.org/1999/xlink" width="30" height="30" viewBox="0 0 30 30">
    <defs>
        <rect id="a" width="30" height="30" rx="3"/>
    </defs>
    <g fill="none" fill-rule="evenodd">
        <g>
            <use fill="#3F7490" xlink:href="#a"/>
            <rect width="29" height="29" x=".5" y=".5" stroke="#000" stroke-opacity=".05" rx="3"/>
        </g>
        <path d="M0 0h30v30H0z"/>
        <path fill="#FFF" fill-rule="nonzero" d="M17 5c-2.7 0-5.3 1.2-7 3.4l.8.8c1.1-1.3 2.5-2.3 4.1-2.7-.8 1.1-1.4 2.9-1.7 5.1l-.1.4h6.8c.1.6.1 1.3.1 2 0 .5 0 1.3-.1 2h-2.2l1 1h1.1c-.1.3-.1.6-.2.8l.8.8c.1-.4.3-1 .4-1.6h3.6c-.5 1.3-1.4 2.4-2.4 3.2l.8.8c2-1.7 3.4-4.2 3.4-7C26 9 22 5 17 5zm-2.8 6c.4-2.7 1.4-4.6 2.5-4.9h.6c1 .3 2 2.2 2.5 4.9h-5.6zm5-4.6c2.4.7 4.3 2.4 5.2 4.6h-3.6c-.3-2-.9-3.6-1.6-4.6zm1.7 9.6c.1-.6.1-1.2.1-2 0-.7 0-1.4-.1-2h3.8c.2.6.3 1.3.3 2s-.1 1.4-.3 2h-3.8z"/>
        <path stroke="#FFF" d="M9.9 21.1c-2.5-2.5-4.2-5.3-4.7-7.2-.4-1.9-.1-2.7.6-3.4.8-.7 1.2-.6 1.8-.1l3.1 3.1c.3.3.3.8 0 1.2-.2.4-1.1 1.3-1.1 1.3s.5 1.1 2.4 3 3 2.4 3 2.4l1.2-1.2c.4-.3.9-.3 1.2 0l3.1 3.1c.6.6.6 1.1-.1 1.8s-1.5 1.1-3.4.6c-1.8-.4-4.6-2.1-7.1-4.6"/>
    </g>
</svg>
