<svg xmlns="http://www.w3.org/2000/svg" xmlns:xlink="http://www.w3.org/1999/xlink" width="30" height="30" viewBox="0 0 30 30">
    <defs>
        <rect id="a" width="30" height="30" rx="3"/>
    </defs>
    <g fill="none" fill-rule="evenodd">
        <g>
            <use fill="#9FABB2" xlink:href="#a"/>
            <rect width="29" height="29" x=".5" y=".5" stroke="#000" stroke-opacity=".05" rx="3"/>
        </g>
        <path d="M0 0h30v30H0z"/>
        <path stroke="#FFF" d="M20.5 16v4.1c0 .8-.6 1.4-1.4 1.4H9.9c-.8 0-1.4-.6-1.4-1.4v-9.2c0-.8.6-1.4 1.4-1.4H15M23.5 13V7.9c0-.8-.6-1.4-1.4-1.4H17"/>
        <path stroke="#FFF" d="M17.5 6.5v6h5.6"/>
        <path fill="#FFF" fill-rule="nonzero" d="M14 9.5h1V21h-1z"/>
        <path fill="#FFF" fill-rule="nonzero" d="M9 15h12v1H9z"/>
    </g>
</svg>
