<svg xmlns="http://www.w3.org/2000/svg" width="36" height="40" viewBox="0 0 36 40">
    <g fill="#DEE1E3" fill-rule="evenodd">
        <path d="M18.698 37.495V16.567l4.183-1.835v9.326l9.164-4.344V10.71l2.276-.999V21.14c0 .42.344.76.769.76.424 0 .769-.34.769-.76V8.05L17.929.181 0 8.05v23.577l17.617 7.732.313.137.313-.138c.076-.032 10.266-4.504 10.266-4.504l-.625-1.388-9.186 4.03zm4.58-24.6L8.01 6.195l5.866-2.573 15.267 6.699-5.866 2.574zm-1.894.831l-3.455 1.516L2.663 8.543 6.206 6.99l-.03.065 15.208 6.672zm9.123 5.032l-6.088 2.886v-7.588l6.088-2.671v7.373zm2.688-10.215l-2.158.947-15.266-6.7 2.158-.946 15.266 6.699zM1.538 9.71l15.622 6.856v20.928L1.538 30.64V9.711z"/>
        <path d="M17.16 37.495V16.567L35.86 8.049v23.577l-17.617 7.732-.313.137-.313-.138c-.076-.032-10.266-4.504-10.266-4.504l.625-1.388 9.186 4.03zM34.32 9.711L18.7 16.567v20.928l15.622-6.855V9.711z"/>
    </g>
</svg>
